ID,BtoB企業,増収企業,オーナー企業_非上場,BtoC企業,従業員増企業,人材エージェント利用企業,高成長企業,女性活躍アピール企業,東京都募集有企業,新卒募集企業,デジタルマーケティング注力企業_BtoB,減収企業,経理・財務職募集企業,一人あたりの売上高高企業,営業職募集企業,出稿料の高い記事掲載企業,従業員大幅増企業,ベンチャー企業,従業員減企業,超高成長企業,増益企業,iOSアプリ提供企業,Androidアプリ提供企業,契約
SL000154,,,,,,,,,,,,,,,,,,,,,,,,N
SL000155,,,,,,,,,,,,,,,,,,,,,,,,N
SL000183,0,0,0,1,0,0,0,0,0,0,0,1,0,0,0,0,0,0,0,0,0,0,0,N
SL000185,1,0,0,0,0,0,0,0,0,0,1,0,0,0,0,0,0,0,0,0,0,0,0,Y
SL000187,,,,,,,,,,,,,,,,,,,,,,,,Y
SL000188,1,0,0,1,0,0,0,0,0,0,0,0,0,0,0,0,0,1,0,0,0,0,0,Y
SL000189,,,,,,,,,,,,,,,,,,,,,,,,Y
SL000190,1,1,0,0,1,1,1,0,0,0,0,0,0,0,0,0,1,0,0,0,1,0,0,Y
SL000191,1,0,1,0,0,0,0,1,1,0,0,0,0,0,1,1,0,0,0,0,0,0,0,N
SL000192,,,,,,,,,,,,,,,,,,,,,,,,Y
SL000241,,,,,,,,,,,,,,,,,,,,,,,,N
SL000243,,,,,,,,,,,,,,,,,,,,,,,,Y
SL000347,,,,,,,,,,,,,,,,,,,,,,,,N
SL000348,1,0,0,0,0,1,0,0,1,0,1,0,0,1,1,0,0,0,0,0,0,1,1,N
SL000351,,,,,,,,,,,,,,,,,,,,,,,,Y
SL000353,,,,,,,,,,,,,,,,,,,,,,,,N
SL000354,,,,,,,,,,,,,,,,,,,,,,,,N
SL000356,,,,,,,,,,,,,,,,,,,,,,,,Y
SL000357,0,1,0,1,1,1,0,0,0,0,0,0,0,1,0,0,1,0,0,0,0,1,1,Y
SL000358,1,1,1,1,0,0,1,0,0,0,0,0,0,0,0,0,0,0,0,0,0,0,0,N
SL000359,0,0,1,1,0,0,0,0,0,0,0,0,0,0,0,0,0,0,0,0,0,0,0,Y
SL000393,,,,,,,,,,,,,,,,,,,,,,,,N
SL000394,,,,,,,,,,,,,,,,,,,,,,,,Y
SL000395,,,,,,,,,,,,,,,,,,,,,,,,N
SL000397,,,,,,,,,,,,,,,,,,,,,,,,Y
SL000398,0,0,0,0,0,0,0,0,0,0,0,0,0,0,0,0,0,0,0,0,0,0,0,N
SL000400,1,1,0,0,0,0,1,0,0,0,0,0,0,1,0,0,0,0,1,0,0,0,0,Y
SL000401,,,,,,,,,,,,,,,,,,,,,,,,Y
SL000402,,,,,,,,,,,,,,,,,,,,,,,,N
SL000434,0,0,0,1,0,0,0,0,0,0,0,0,0,0,0,0,0,0,0,0,0,0,0,Y
SL000436,,,,,,,,,,,,,,,,,,,,,,,,Y
SL000439,1,0,0,0,0,1,0,0,1,0,1,0,0,1,1,0,0,0,0,0,0,1,1,N
SL000440,,,,,,,,,,,,,,,,,,,,,,,,N
SL000441,1,1,1,0,1,0,1,0,1,1,0,0,1,0,0,0,1,0,0,1,0,0,0,Y
SL000442,1,0,1,0,1,1,0,0,0,0,0,1,0,0,0,0,0,0,0,0,0,0,0,Y
SL000491,1,0,0,0,0,0,0,0,0,0,0,0,0,0,0,0,0,0,0,0,0,0,0,Y
SL000492,0,1,1,0,1,1,1,0,1,0,0,0,0,0,1,1,0,0,0,1,0,1,1,Y
SL000493,,,,,,,,,,,,,,,,,,,,,,,,Y
SL000496,1,0,0,1,0,0,0,0,0,0,0,0,0,0,0,0,0,1,0,0,0,0,0,Y
SL000497,,,,,,,,,,,,,,,,,,,,,,,,N
SL000498,0,1,0,1,1,0,1,0,0,0,0,0,0,1,0,0,0,0,0,1,0,0,0,Y
SL000500,,,,,,,,,,,,,,,,,,,,,,,,Y
SL000501,,,,,,,,,,,,,,,,,,,,,,,,N
SL000502,,,,,,,,,,,,,,,,,,,,,,,,N
SL000506,1,0,1,0,0,0,0,0,0,0,0,1,0,0,0,0,0,0,0,0,0,0,0,Y
SL000507,0,1,0,1,0,0,1,0,0,1,0,0,0,1,0,0,0,0,0,0,0,0,0,Y
SL000509,,,,,,,,,,,,,,,,,,,,,,,,Y
SL000533,,,,,,,,,,,,,,,,,,,,,,,,Y
SL000534,,,,,,,,,,,,,,,,,,,,,,,,Y
SL000551,0,0,0,0,0,0,0,0,0,0,0,0,0,0,0,0,0,1,0,0,0,0,0,N
SL000553,,,,,,,,,,,,,,,,,,,,,,,,N
SL000554,,,,,,,,,,,,,,,,,,,,,,,,N
SL000555,1,0,1,0,0,1,0,0,1,0,1,0,1,0,0,0,0,1,0,0,0,0,0,Y
SL000557,0,0,0,1,0,0,0,0,1,0,0,0,0,0,0,0,0,0,0,0,0,0,0,Y
SL000560,1,0,1,0,0,0,0,0,0,0,0,0,0,0,0,0,0,0,0,0,0,0,0,Y
SL000561,,,,,,,,,,,,,,,,,,,,,,,,N
SL000562,,,,,,,,,,,,,,,,,,,,,,,,N
SL000563,0,1,0,1,0,0,0,0,0,1,0,0,0,1,0,0,0,0,1,0,0,0,0,Y
SL000586,0,0,0,0,0,0,0,0,0,0,0,0,0,0,0,0,0,1,0,0,0,0,0,Y
SL000587,,,,,,,,,,,,,,,,,,,,,,,,N
SL000589,1,0,0,0,0,0,0,0,0,0,0,0,0,0,0,0,0,0,0,0,0,1,0,N
SL000590,0,0,0,1,0,0,0,0,0,0,0,0,0,0,0,0,0,0,0,0,0,0,0,Y
SL000591,0,0,0,1,1,0,0,0,0,1,0,0,0,0,0,0,1,0,0,0,0,1,1,N
SL000592,1,1,1,0,0,0,0,0,0,1,1,0,0,0,0,0,0,0,0,0,0,0,0,N
SL000608,,,,,,,,,,,,,,,,,,,,,,,,Y
SL000609,,,,,,,,,,,,,,,,,,,,,,,,N
SL000658,1,0,1,0,0,0,0,0,0,1,0,0,0,0,0,0,0,0,0,0,1,0,0,N
SL000679,1,0,0,0,0,1,0,0,1,0,1,0,0,1,1,0,0,0,0,0,0,1,1,Y
SL000681,,,,,,,,,,,,,,,,,,,,,,,,N
SL000682,1,0,1,0,0,0,0,0,0,0,0,1,0,0,0,0,0,0,0,0,0,0,0,N
SL000741,,,,,,,,,,,,,,,,,,,,,,,,Y
SL000742,0,0,0,1,0,0,0,0,0,0,0,0,0,0,0,0,0,0,0,0,0,0,0,N
SL000743,,,,,,,,,,,,,,,,,,,,,,,,Y
SL000744,,,,,,,,,,,,,,,,,,,,,,,,Y
SL000745,,,,,,,,,,,,,,,,,,,,,,,,Y
SL000746,1,0,0,0,0,0,0,0,0,0,0,0,0,1,0,0,0,0,0,0,0,0,0,N
SL000747,,,,,,,,,,,,,,,,,,,,,,,,Y
SL000748,,,,,,,,,,,,,,,,,,,,,,,,Y
SL000897,,,,,,,,,,,,,,,,,,,,,,,,N
SL000920,1,1,0,0,1,1,1,1,1,0,1,0,0,0,1,1,1,0,0,1,1,0,0,Y
SL000925,1,0,1,0,0,0,0,0,0,0,0,0,0,0,0,0,0,0,0,0,0,0,0,Y
SL000926,1,0,1,0,0,0,0,0,0,0,0,0,0,0,0,0,0,0,0,0,0,0,0,Y
SL000927,1,0,1,0,0,0,0,0,0,0,0,0,0,0,0,0,0,0,0,0,0,0,0,Y
SL000928,1,0,1,0,0,0,0,0,0,0,0,0,0,0,0,0,0,0,0,0,0,0,0,N
SL000929,1,0,1,0,0,0,0,0,0,0,0,0,0,0,0,0,0,0,0,0,0,0,0,N
SL000930,1,0,1,0,0,0,0,0,0,0,0,0,0,0,0,0,0,0,0,0,0,0,0,Y
SL000931,1,0,1,0,0,0,0,0,0,0,0,0,0,0,0,0,0,0,0,0,0,0,0,N
SL000932,1,0,1,0,0,0,0,0,0,0,0,0,0,0,0,0,0,0,0,0,0,0,0,Y
SL000933,1,0,1,0,0,0,0,0,0,0,0,0,0,0,0,0,0,0,0,0,0,0,0,Y
SL000934,1,0,1,0,0,0,0,0,0,0,0,0,0,0,0,0,0,0,0,0,0,0,0,Y
SL000939,,,,,,,,,,,,,,,,,,,,,,,,N
SL000969,1,0,1,0,0,0,0,0,0,0,1,1,0,0,0,0,0,0,0,0,0,0,0,Y
SL000971,,,,,,,,,,,,,,,,,,,,,,,,Y
SL000972,,,,,,,,,,,,,,,,,,,,,,,,Y
SL000973,1,0,0,0,0,0,0,0,0,0,0,0,0,0,0,0,0,0,0,0,0,0,0,N
SL000977,,,,,,,,,,,,,,,,,,,,,,,,Y
SL000978,1,0,1,0,0,0,0,0,0,0,0,0,0,0,0,0,0,0,0,0,0,0,0,N
SL000986,1,0,0,0,0,0,0,0,0,0,0,0,0,0,0,0,0,0,0,0,0,0,0,Y
SL000987,1,0,0,0,0,0,0,0,0,0,0,0,0,0,0,0,0,0,0,0,0,1,1,Y
SL000988,1,0,1,0,0,0,0,0,0,0,0,1,0,0,0,0,0,0,1,0,0,0,0,Y
SL000989,,,,,,,,,,,,,,,,,,,,,,,,Y
SL000990,1,1,0,0,0,0,0,0,0,0,0,0,1,0,1,0,0,0,1,0,0,0,0,Y
SL001016,1,0,1,0,0,0,0,0,0,0,0,0,0,0,0,0,0,0,0,0,0,0,0,Y
SL001017,1,1,1,0,1,0,1,0,0,0,0,0,0,0,0,0,1,0,0,1,0,0,0,Y
SL001104,1,0,0,1,0,0,0,0,0,0,0,0,0,0,0,0,0,1,0,0,0,0,0,Y
SL001105,0,0,0,1,1,0,0,0,0,1,0,0,0,0,0,0,1,0,0,0,0,1,1,N
SL001107,0,0,0,1,0,0,0,0,0,0,0,0,0,0,0,0,0,0,0,0,0,0,0,N
SL001108,,,,,,,,,,,,,,,,,,,,,,,,Y
SL001109,0,0,0,0,0,0,0,0,0,0,0,0,0,0,0,0,0,0,0,0,0,0,0,N
SL001158,1,1,0,0,1,0,0,1,0,0,0,0,0,0,0,1,1,0,0,0,0,0,0,Y
SL001159,1,0,1,0,0,1,0,0,0,0,0,0,0,0,0,0,0,1,0,0,0,0,0,Y
SL001160,,,,,,,,,,,,,,,,,,,,,,,,N
SL001161,1,1,1,0,0,0,1,0,0,0,0,0,0,1,0,0,0,0,1,1,0,0,0,Y
SL001162,,,,,,,,,,,,,,,,,,,,,,,,Y
SL001170,,,,,,,,,,,,,,,,,,,,,,,,Y
SL001171,1,0,0,0,0,0,0,0,0,0,0,0,0,0,0,0,0,0,0,0,0,1,1,Y
SL001176,,,,,,,,,,,,,,,,,,,,,,,,Y
SL001177,,,,,,,,,,,,,,,,,,,,,,,,N
SL001179,0,1,0,0,0,0,0,0,0,0,0,0,0,0,0,0,0,1,0,0,0,0,0,N
SL001186,1,0,0,0,0,0,0,0,0,0,0,0,0,0,0,0,0,0,0,0,0,0,0,Y
SL001201,0,1,0,0,1,0,1,1,0,0,1,0,1,1,1,1,0,0,0,1,0,0,0,Y
SL001205,,,,,,,,,,,,,,,,,,,,,,,,Y
SL001206,1,0,1,0,0,0,0,0,0,0,0,0,0,0,0,0,0,1,0,0,0,0,0,N
SL001207,1,0,0,0,0,0,0,0,0,0,0,0,0,0,0,0,0,0,0,0,0,1,1,Y
SL001210,,,,,,,,,,,,,,,,,,,,,,,,Y
SL001211,,,,,,,,,,,,,,,,,,,,,,,,Y
SL001212,,,,,,,,,,,,,,,,,,,,,,,,Y
SL001213,1,0,0,0,0,1,0,0,1,0,1,0,0,1,1,0,0,0,0,0,0,1,1,Y
SL001214,1,1,1,0,1,0,1,0,0,0,0,0,0,0,0,0,1,0,0,1,0,0,0,Y
SL001215,1,0,0,1,0,0,0,0,0,0,0,0,0,0,0,0,0,1,0,0,0,0,0,Y
SL001216,1,1,1,0,1,0,1,0,0,1,0,0,0,0,0,0,1,1,0,1,1,0,0,N
SL001218,,,,,,,,,,,,,,,,,,,,,,,,Y
SL001224,1,1,0,0,1,0,0,1,1,0,1,0,0,0,0,1,0,0,0,0,1,0,0,N
SL001225,1,0,1,0,0,0,0,0,0,0,0,1,0,0,0,0,0,0,1,0,0,0,0,Y
SL001226,0,0,0,1,0,0,0,0,0,0,0,0,0,0,0,0,0,0,0,0,0,0,0,Y
SL001227,,,,,,,,,,,,,,,,,,,,,,,,Y
SL001228,1,1,1,0,0,0,1,1,1,0,0,0,0,0,0,0,0,0,0,0,0,0,0,N
SL001229,,,,,,,,,,,,,,,,,,,,,,,,Y
SL001230,,,,,,,,,,,,,,,,,,,,,,,,Y
SL001231,0,0,0,0,0,0,0,0,0,0,0,0,0,0,0,0,0,0,0,0,0,0,0,Y
SL001232,1,0,0,0,0,0,0,0,0,0,0,0,0,0,0,0,0,0,0,0,0,0,0,Y
SL001233,,,,,,,,,,,,,,,,,,,,,,,,Y
SL001235,,,,,,,,,,,,,,,,,,,,,,,,N
SL001236,,,,,,,,,,,,,,,,,,,,,,,,N
SL001237,1,0,1,0,0,0,0,1,1,0,1,0,0,0,0,0,0,0,1,0,0,0,0,N
SL001238,,,,,,,,,,,,,,,,,,,,,,,,Y
SL001241,0,1,1,1,1,0,0,0,0,0,0,0,0,0,0,0,0,0,0,0,0,0,0,Y
SL001242,,,,,,,,,,,,,,,,,,,,,,,,Y
SL001256,1,0,1,0,1,0,0,0,0,0,0,1,0,0,0,0,1,0,0,0,0,0,0,Y
SL001258,,,,,,,,,,,,,,,,,,,,,,,,Y
SL001259,0,0,0,1,0,0,0,0,0,0,0,0,0,0,0,0,0,0,0,0,0,0,0,Y
SL001263,1,0,1,0,0,0,0,0,0,0,0,0,0,0,0,0,0,0,0,0,0,0,0,Y
SL001264,0,0,0,1,0,0,0,0,0,0,0,0,0,0,0,0,0,1,0,0,0,0,0,Y
SL001269,1,0,0,0,0,0,0,0,0,0,0,0,0,0,0,0,0,0,0,0,0,1,1,Y
SL001270,1,0,0,0,0,0,0,0,0,0,1,0,0,0,0,0,0,0,0,0,0,0,0,Y
SL001272,,,,,,,,,,,,,,,,,,,,,,,,Y
SL001273,1,1,0,0,1,1,0,1,1,1,1,0,0,0,1,1,0,0,0,0,1,0,0,Y
SL001274,0,0,0,1,0,0,0,0,0,0,0,0,0,0,0,0,0,0,0,0,0,0,0,Y
SL001275,1,0,1,0,1,0,0,0,1,0,0,0,0,0,0,0,1,0,0,0,0,0,0,N
SL001294,0,0,0,1,0,0,0,0,0,0,0,0,0,0,0,0,0,0,0,0,0,0,0,Y
SL001299,,,,,,,,,,,,,,,,,,,,,,,,Y
SL001300,0,0,0,1,0,0,0,0,0,0,0,0,0,0,0,0,0,0,0,0,0,0,0,N
SL001301,,,,,,,,,,,,,,,,,,,,,,,,Y
SL001302,1,1,1,0,0,0,0,0,0,0,0,0,0,0,0,0,0,0,0,0,0,0,0,N
SL001303,,,,,,,,,,,,,,,,,,,,,,,,Y
SL001304,,,,,,,,,,,,,,,,,,,,,,,,N
SL001305,1,1,0,0,0,0,1,0,0,0,1,0,0,1,0,0,0,0,0,1,0,0,0,Y
SL001306,1,1,1,0,1,0,1,0,0,1,0,0,0,0,0,0,1,1,0,1,1,0,0,Y
SL001308,,,,,,,,,,,,,,,,,,,,,,,,Y
SL001309,0,1,0,1,1,1,0,0,0,1,0,0,0,0,0,0,0,0,0,0,0,0,0,Y
SL001310,,,,,,,,,,,,,,,,,,,,,,,,Y
SL001311,0,0,0,1,0,0,0,0,0,0,0,0,0,0,0,0,0,0,0,0,0,0,0,Y
SL001312,,,,,,,,,,,,,,,,,,,,,,,,Y
SL001314,,,,,,,,,,,,,,,,,,,,,,,,N
SL001321,,,,,,,,,,,,,,,,,,,,,,,,Y
SL001322,0,0,0,1,0,0,0,0,0,0,0,0,0,0,0,0,0,0,0,0,0,0,0,N
SL001323,1,0,1,0,0,0,0,0,0,0,0,1,0,0,0,0,0,0,0,0,0,0,0,Y
SL001325,,,,,,,,,,,,,,,,,,,,,,,,Y
SL001326,1,1,0,0,1,1,1,1,0,0,1,0,1,0,0,1,1,0,0,0,1,0,0,N
SL001327,1,1,1,0,1,1,0,0,0,0,0,0,0,0,0,0,0,1,0,0,1,0,0,Y
SL001330,1,0,1,0,0,0,0,0,0,0,0,0,0,0,0,0,0,0,0,0,0,0,0,Y
SL001331,1,0,1,0,0,0,0,0,0,0,0,0,0,0,0,0,0,0,0,0,0,0,0,Y
SL001332,1,1,0,0,0,1,0,1,0,0,0,0,0,0,1,0,0,0,0,0,0,0,0,Y
SL001333,,,,,,,,,,,,,,,,,,,,,,,,Y
SL001335,1,1,1,0,0,1,1,0,0,0,0,0,0,1,0,0,0,0,0,0,0,0,0,Y
SL001336,0,0,0,1,1,0,0,0,0,1,0,0,0,0,0,0,1,0,0,0,0,1,1,Y
SL001337,0,0,0,1,1,0,0,0,0,1,0,0,0,0,0,0,1,0,0,0,0,1,1,N
SL001344,,,,,,,,,,,,,,,,,,,,,,,,Y
SL001345,0,0,0,1,0,0,0,0,0,0,0,0,0,0,0,0,0,0,0,0,0,0,0,N
SL001346,0,1,1,1,0,0,0,0,0,1,0,1,1,0,0,0,0,1,0,0,0,0,0,Y
SL001347,0,0,1,1,0,0,0,0,0,0,0,0,0,0,0,0,0,0,0,0,0,0,0,Y
SL001402,1,0,0,0,0,0,0,0,0,0,0,0,0,0,0,0,0,0,0,0,0,0,0,Y
SL001410,1,0,1,0,0,0,0,0,0,0,0,1,0,0,0,0,0,0,1,0,0,0,0,Y
SL001411,1,1,1,0,0,0,0,0,0,0,0,0,0,0,0,0,0,0,0,0,0,0,0,Y
SL001412,1,0,0,0,0,0,0,0,1,1,0,1,1,0,1,0,0,0,1,0,0,0,0,N
SL001413,,,,,,,,,,,,,,,,,,,,,,,,N
SL001414,1,1,1,0,0,0,0,0,0,0,0,0,0,0,0,0,0,1,0,0,0,0,0,Y
SL001415,1,0,0,0,0,0,0,0,0,0,0,0,0,0,0,0,0,0,0,0,0,1,1,Y
SL001417,,,,,,,,,,,,,,,,,,,,,,,,Y
SL001418,1,1,0,0,0,0,1,0,0,0,0,0,0,0,0,0,0,0,0,1,0,0,0,Y
SL001419,,,,,,,,,,,,,,,,,,,,,,,,Y
SL001420,,,,,,,,,,,,,,,,,,,,,,,,Y
SL001421,0,0,0,1,0,0,0,0,0,0,0,1,0,0,0,0,0,0,0,0,0,0,0,Y
SL001422,,,,,,,,,,,,,,,,,,,,,,,,Y
SL001423,,,,,,,,,,,,,,,,,,,,,,,,Y
SL001432,1,0,1,0,0,0,0,0,0,0,0,0,0,0,0,0,0,1,0,0,0,0,0,N
SL001434,1,1,0,0,1,1,0,1,1,0,0,0,0,0,1,0,1,0,0,0,1,0,0,N
SL001439,,,,,,,,,,,,,,,,,,,,,,,,Y
SL001441,1,0,0,0,0,0,0,0,0,0,0,0,0,0,0,0,0,0,0,0,0,0,0,N
SL001442,1,0,1,0,0,0,0,0,0,0,0,1,0,1,0,0,0,0,0,0,0,0,0,N
SL001443,1,0,0,0,0,0,0,0,0,0,0,0,0,0,0,0,0,0,0,0,0,1,1,Y
SL001444,1,0,0,0,0,0,0,0,0,0,0,0,0,0,0,0,0,0,0,0,0,0,0,Y
SL001445,1,1,0,0,1,1,1,0,0,0,0,0,0,0,0,0,1,0,0,0,1,0,0,Y
SL001446,1,1,0,0,1,0,1,1,1,0,1,0,1,0,1,1,1,1,0,1,0,0,0,Y
SL001460,,,,,,,,,,,,,,,,,,,,,,,,Y
SL001461,1,0,0,0,0,0,0,0,0,0,0,0,0,0,0,0,0,0,0,0,0,0,0,Y
SL001462,0,0,0,1,0,0,0,0,0,0,0,0,0,0,0,0,0,0,0,0,0,0,0,Y
SL001463,1,1,1,0,0,0,1,0,0,0,0,0,0,0,0,0,0,1,0,1,0,0,0,Y
SL001464,1,0,0,0,0,0,0,0,0,0,0,0,0,0,0,0,0,0,0,0,0,0,0,Y
SL001465,0,0,0,1,0,0,0,0,0,0,0,0,0,0,0,0,0,0,0,0,0,0,0,Y
SL001466,1,1,0,0,1,1,0,0,0,1,0,0,0,0,0,0,1,0,0,0,0,0,0,Y
SL001467,0,0,0,0,0,0,0,0,0,0,0,0,0,0,0,0,0,0,0,0,0,0,0,Y
SL001468,1,0,0,0,0,1,0,1,1,0,1,1,1,0,1,0,0,0,1,0,0,0,0,Y
SL001471,,,,,,,,,,,,,,,,,,,,,,,,N
SL001473,0,0,1,1,1,0,0,0,0,0,0,1,0,0,0,0,0,0,0,0,0,0,0,Y
SL001474,1,1,1,0,1,0,0,0,0,0,0,0,0,0,0,0,0,1,0,0,0,0,0,Y
SL001475,1,0,1,0,1,0,0,0,0,0,0,1,0,0,0,0,1,0,0,0,0,0,0,N
SL001476,0,1,1,0,1,1,1,0,1,0,0,0,0,0,1,1,0,0,0,1,0,1,1,Y
SL001477,,,,,,,,,,,,,,,,,,,,,,,,Y
SL001478,0,0,1,1,0,0,0,0,0,0,0,0,0,0,0,0,0,0,0,0,0,0,0,Y
SL001482,,,,,,,,,,,,,,,,,,,,,,,,Y
SL001483,1,1,0,0,1,0,1,0,0,0,1,0,0,0,0,0,1,0,0,1,0,0,0,N
SL001492,,,,,,,,,,,,,,,,,,,,,,,,Y
SL001493,1,0,0,0,0,0,0,0,0,0,0,0,0,0,0,0,0,0,1,0,0,0,0,Y
SL001494,1,0,0,0,0,1,0,0,0,0,0,1,0,1,0,0,0,0,0,0,0,0,0,Y
SL001497,,,,,,,,,,,,,,,,,,,,,,,,Y
SL001499,,,,,,,,,,,,,,,,,,,,,,,,Y
SL001500,,,,,,,,,,,,,,,,,,,,,,,,N
SL001502,,,,,,,,,,,,,,,,,,,,,,,,Y
SL001503,1,0,0,0,0,0,0,0,0,0,0,0,0,0,0,0,0,0,0,0,0,1,1,Y
SL001504,1,0,0,0,0,0,0,0,0,0,0,0,0,0,0,0,0,0,0,0,0,1,1,Y
SL001505,1,0,1,0,0,0,0,0,0,0,0,1,0,0,0,0,0,0,0,0,0,0,0,Y
SL001507,1,0,1,0,0,0,0,0,0,0,0,0,0,0,0,0,0,0,0,0,0,0,0,Y
SL001508,1,0,0,0,1,1,0,0,0,1,0,1,0,1,0,0,0,0,0,0,0,0,0,Y
SL001512,0,0,0,1,0,0,0,0,0,0,0,0,0,0,0,0,0,0,0,0,0,0,0,Y
SL001513,1,0,1,0,0,0,0,0,0,0,0,1,0,0,0,0,0,0,0,0,0,0,0,Y
SL001514,1,1,1,0,0,0,0,0,0,0,0,0,0,0,0,0,0,0,0,0,0,0,0,Y
SL001529,1,1,1,0,1,0,1,0,0,1,0,0,0,0,0,0,1,1,0,1,1,0,0,Y
SL001530,,,,,,,,,,,,,,,,,,,,,,,,Y
SL001531,0,0,0,1,0,0,0,0,0,0,0,0,0,0,0,0,0,0,0,0,0,0,0,Y
SL001532,,,,,,,,,,,,,,,,,,,,,,,,Y
SL001538,0,0,0,1,0,0,0,0,0,0,0,0,0,0,0,0,0,0,0,0,0,0,0,N
SL001539,0,0,0,1,1,0,0,0,0,0,0,1,0,0,0,0,1,0,0,0,1,0,0,Y
SL001540,0,1,0,1,0,0,0,0,0,0,0,0,0,1,0,0,0,0,1,0,0,0,0,Y
SL001551,,,,,,,,,,,,,,,,,,,,,,,,Y
SL001555,1,0,0,0,0,0,0,0,0,0,1,0,0,0,0,0,0,0,0,0,0,0,0,N
SL001556,,,,,,,,,,,,,,,,,,,,,,,,N
SL001557,,,,,,,,,,,,,,,,,,,,,,,,Y
SL001558,,,,,,,,,,,,,,,,,,,,,,,,N
SL001559,0,0,0,1,0,0,0,0,0,0,0,0,0,0,0,0,0,0,0,0,0,0,0,Y
SL001561,,,,,,,,,,,,,,,,,,,,,,,,Y
SL001563,1,0,0,1,0,0,0,0,0,0,0,0,0,0,0,0,0,0,0,0,0,0,0,Y
SL001564,,,,,,,,,,,,,,,,,,,,,,,,Y
SL001565,0,1,0,1,0,0,0,0,0,0,0,0,0,0,0,0,0,0,0,0,0,0,0,Y
SL001568,,,,,,,,,,,,,,,,,,,,,,,,Y
SL001569,,,,,,,,,,,,,,,,,,,,,,,,N
SL001570,1,1,0,0,1,0,1,0,0,0,0,0,0,1,0,0,0,0,0,1,0,0,0,Y
SL001595,1,0,1,1,0,0,0,0,0,0,0,0,0,0,0,0,0,1,0,0,0,0,0,Y
SL001596,,,,,,,,,,,,,,,,,,,,,,,,Y
SL001609,1,1,1,0,1,0,1,0,0,0,0,0,0,0,0,0,0,0,0,0,0,1,1,Y
SL001610,0,0,0,1,0,0,0,1,1,1,0,0,0,0,0,1,0,0,0,0,0,0,0,Y
SL001611,,,,,,,,,,,,,,,,,,,,,,,,Y
SL001612,0,1,1,1,1,1,0,1,0,1,0,0,0,0,0,0,0,0,0,0,0,0,0,N
SL001615,0,0,0,1,1,0,0,0,0,1,0,0,0,0,0,0,1,0,0,0,0,1,1,Y
SL001616,1,0,0,0,0,0,0,0,0,0,0,0,0,0,0,0,0,0,0,0,0,0,0,N
SL001617,0,1,0,1,0,0,1,0,0,1,0,0,0,0,0,0,0,0,1,0,0,0,0,Y
SL001618,,,,,,,,,,,,,,,,,,,,,,,,N
SL001619,,,,,,,,,,,,,,,,,,,,,,,,N
SL001620,1,0,1,0,0,0,0,0,0,0,0,0,0,0,0,0,0,0,0,0,0,0,0,Y
SL001699,0,0,0,0,0,0,0,0,0,0,0,0,0,0,0,0,0,0,0,0,0,0,0,Y
SL001700,,,,,,,,,,,,,,,,,,,,,,,,Y
SL001701,1,0,0,0,0,0,0,0,0,0,0,0,0,0,0,0,0,0,0,0,0,0,0,N
SL001702,,,,,,,,,,,,,,,,,,,,,,,,Y
SL001704,,,,,,,,,,,,,,,,,,,,,,,,N
SL001705,0,0,0,1,0,1,0,1,1,0,0,1,1,0,0,0,0,1,1,0,0,0,0,Y
SL001706,,,,,,,,,,,,,,,,,,,,,,,,Y
SL001707,0,1,1,1,0,0,0,0,0,1,0,0,0,0,0,0,0,0,1,0,0,0,0,N
SL001709,1,0,0,0,0,0,0,0,0,0,0,0,0,0,0,0,0,0,0,0,0,0,0,Y
SL001710,,,,,,,,,,,,,,,,,,,,,,,,Y
SL001711,0,0,0,1,1,0,0,0,0,1,0,0,0,0,0,0,1,0,0,0,0,1,1,Y
SL001713,0,0,0,1,0,0,0,0,1,0,0,0,0,0,0,0,0,0,0,0,0,0,0,N
SL001715,1,0,0,1,0,0,0,0,0,0,0,0,0,0,0,0,0,1,0,0,0,0,0,Y
SL001716,,,,,,,,,,,,,,,,,,,,,,,,Y
SL001714,,,,,,,,,,,,,,,,,,,,,,,,N
SL001717,1,0,0,0,1,1,0,1,1,0,1,0,1,0,1,1,1,1,0,0,0,0,0,Y
SL001718,,,,,,,,,,,,,,,,,,,,,,,,Y
SL001719,,,,,,,,,,,,,,,,,,,,,,,,N
SL001720,,,,,,,,,,,,,,,,,,,,,,,,N
SL001721,1,1,0,0,1,1,0,1,1,1,0,0,0,0,0,1,0,0,0,0,1,0,0,N
SL001722,,,,,,,,,,,,,,,,,,,,,,,,Y
SL001738,0,0,1,1,0,0,0,0,0,0,0,0,0,0,0,0,0,0,0,0,0,1,1,Y
SL001739,0,0,0,1,0,0,0,0,0,0,0,0,0,0,0,0,0,0,0,0,0,0,0,Y
SL001740,1,0,1,0,1,0,0,0,0,0,0,1,0,0,0,0,1,0,0,0,0,0,0,Y
SL001741,1,1,0,0,1,1,0,1,1,0,0,0,0,0,1,0,1,0,0,0,1,0,0,Y
SL001742,0,0,1,0,0,1,0,0,0,1,0,0,0,0,0,0,0,0,0,0,0,0,0,Y
SL001743,,,,,,,,,,,,,,,,,,,,,,,,Y
SL001744,0,0,0,1,0,0,0,0,0,0,0,0,0,0,0,0,0,0,0,0,0,0,0,Y
SL001748,,,,,,,,,,,,,,,,,,,,,,,,N
SL001749,1,0,1,0,0,0,0,0,0,0,0,0,0,0,0,0,0,0,0,0,0,0,0,Y
SL001750,0,1,0,1,1,1,1,0,1,1,0,0,1,0,0,0,1,0,0,0,1,1,1,Y
SL001752,0,0,0,1,0,0,0,0,0,0,0,0,0,0,0,0,0,0,0,0,0,0,0,Y
SL001753,1,0,1,0,0,0,0,0,0,0,0,1,0,0,0,0,0,0,0,0,0,0,0,Y
SL001751,,,,,,,,,,,,,,,,,,,,,,,,Y
SL001769,1,0,1,0,0,0,0,0,0,0,0,1,0,0,0,0,0,0,0,0,0,0,0,Y
SL001770,1,0,1,0,0,0,0,0,0,0,0,1,0,0,0,0,0,0,0,0,0,0,0,Y
SL001772,1,0,1,0,1,0,0,0,0,0,0,1,0,0,0,0,1,0,0,0,0,0,0,N
SL001773,1,0,1,0,0,1,0,0,1,0,1,0,1,0,0,0,0,1,0,0,0,0,0,Y
SL001774,0,0,1,1,1,0,0,0,0,0,0,1,0,0,0,0,0,0,0,0,0,0,0,Y
SL001775,,,,,,,,,,,,,,,,,,,,,,,,Y
SL001776,1,0,0,0,0,0,0,0,0,0,0,0,0,0,0,0,0,0,0,0,0,0,0,Y
SL001777,,,,,,,,,,,,,,,,,,,,,,,,Y
SL001778,0,0,1,1,0,0,0,0,0,0,0,1,0,0,0,0,0,0,0,0,0,0,0,Y
SL001779,,,,,,,,,,,,,,,,,,,,,,,,Y
SL001780,,,,,,,,,,,,,,,,,,,,,,,,Y
SL001782,0,1,1,0,0,0,1,0,0,0,0,0,0,0,0,0,0,0,0,1,0,0,0,Y
SL001784,,,,,,,,,,,,,,,,,,,,,,,,Y
SL001785,1,0,0,0,0,0,0,0,0,0,0,0,0,0,0,0,0,0,0,0,0,0,0,Y
SL001794,1,0,1,0,0,0,0,0,0,0,0,0,0,1,0,0,0,0,0,0,0,0,0,Y
SL001795,,,,,,,,,,,,,,,,,,,,,,,,Y
SL001800,,,,,,,,,,,,,,,,,,,,,,,,Y
SL001801,,,,,,,,,,,,,,,,,,,,,,,,Y
SL001803,1,0,0,0,0,0,0,0,0,0,0,0,0,0,0,0,0,1,0,0,0,0,0,N
SL001806,1,1,0,0,1,0,1,1,1,1,0,0,0,0,1,1,0,0,0,0,0,0,0,Y
SL001807,,,,,,,,,,,,,,,,,,,,,,,,Y
SL001808,1,0,1,0,0,0,0,0,1,0,0,0,0,0,0,1,0,0,0,0,0,0,0,Y
SL001809,,,,,,,,,,,,,,,,,,,,,,,,Y
SL001821,0,0,1,1,1,0,0,0,0,0,0,1,0,0,0,0,0,0,0,0,0,0,0,Y
SL001822,1,0,0,0,0,0,0,0,0,0,0,0,0,0,0,0,0,0,0,0,0,0,0,Y
SL001825,0,0,1,1,0,0,0,0,0,0,0,1,0,0,0,0,0,0,0,0,0,0,0,Y
SL001826,1,0,1,0,0,0,0,0,0,0,0,0,0,0,0,0,0,0,0,0,0,0,0,Y
SL001827,1,0,0,0,0,0,0,0,0,0,1,0,0,0,0,0,0,0,0,0,0,0,0,Y
SL001828,,,,,,,,,,,,,,,,,,,,,,,,Y
SL001829,1,0,1,0,0,0,0,0,0,0,0,0,0,0,0,0,0,0,0,0,0,0,0,N
SL001830,1,0,1,0,0,0,0,0,0,0,0,1,0,0,0,0,0,0,0,0,0,0,0,Y
SL001831,,,,,,,,,,,,,,,,,,,,,,,,Y
SL001832,1,0,1,0,0,0,0,0,0,0,0,0,0,0,0,0,0,0,0,0,0,0,0,Y
SL001833,,,,,,,,,,,,,,,,,,,,,,,,Y
SL001834,,,,,,,,,,,,,,,,,,,,,,,,N
SL001835,0,0,1,1,0,0,0,0,0,0,0,0,0,0,0,0,0,0,0,0,0,0,0,Y
SL001837,1,0,1,0,0,0,0,0,0,0,0,0,0,0,0,0,0,0,0,0,0,0,0,Y
SL001838,1,1,1,1,0,0,0,0,0,0,1,0,0,1,0,0,0,0,1,0,0,1,1,N
SL001840,1,0,1,0,0,0,0,0,0,0,0,1,0,0,0,0,0,0,1,0,0,0,0,Y
SL001841,,,,,,,,,,,,,,,,,,,,,,,,Y
SL001842,1,0,1,0,0,0,0,0,1,0,0,0,1,0,1,0,0,0,0,0,0,0,0,Y
SL001843,1,0,0,0,0,0,0,0,0,0,0,0,0,0,0,0,0,1,0,0,0,0,0,Y
SL001890,0,0,0,0,0,1,0,0,0,0,0,0,0,0,1,0,0,0,0,0,0,0,0,Y
SL001891,0,0,0,0,0,0,0,0,0,0,0,0,0,0,0,0,0,0,0,0,0,0,0,Y
SL001892,1,1,1,0,1,0,1,0,0,1,0,0,0,0,0,0,1,1,0,1,1,0,0,Y
SL001893,1,1,0,0,0,0,0,0,0,0,0,0,0,1,0,0,0,0,0,0,0,0,0,N
SL001894,,,,,,,,,,,,,,,,,,,,,,,,Y
SL001951,1,0,1,0,0,0,0,0,0,0,0,0,0,0,0,0,0,0,0,0,0,0,0,Y
SL001954,,,,,,,,,,,,,,,,,,,,,,,,Y
SL001955,1,1,0,0,1,1,0,0,1,1,0,0,1,0,1,0,0,0,0,0,1,0,0,N
SL001956,1,0,0,0,0,1,0,0,0,0,0,0,0,0,0,0,0,1,0,0,1,0,0,Y
SL001957,,,,,,,,,,,,,,,,,,,,,,,,Y
SL001958,1,0,1,0,0,0,0,0,0,0,0,0,0,0,0,0,0,0,0,0,0,0,0,Y
SL001959,0,0,1,1,0,0,0,0,0,0,0,0,0,0,0,0,0,0,1,0,0,0,0,Y
SL001960,1,0,0,0,0,0,0,0,0,0,0,1,0,0,0,0,0,0,0,0,0,0,0,Y
SL001961,,,,,,,,,,,,,,,,,,,,,,,,Y
SL001962,1,0,0,1,0,1,0,1,0,0,1,0,1,0,0,1,0,0,0,0,0,0,0,Y
SL001983,1,1,1,0,1,0,1,0,0,1,0,0,0,0,0,0,1,1,0,1,1,0,0,Y
SL001985,,,,,,,,,,,,,,,,,,,,,,,,Y
SL001992,1,1,0,0,0,1,1,0,0,1,1,0,0,1,1,0,0,0,1,0,0,0,0,Y
SL002016,1,0,1,0,0,0,0,0,0,0,0,0,0,0,0,0,0,0,0,0,0,0,0,Y
SL002017,,,,,,,,,,,,,,,,,,,,,,,,Y
SL002018,1,0,0,0,0,0,0,0,1,0,0,0,0,0,0,0,0,0,0,0,0,0,0,N
SL002025,,,,,,,,,,,,,,,,,,,,,,,,Y
SL002026,1,0,1,0,0,0,0,0,0,0,0,0,0,0,0,0,0,0,0,0,0,0,0,Y
SL002031,,,,,,,,,,,,,,,,,,,,,,,,Y
SL002032,,,,,,,,,,,,,,,,,,,,,,,,N
SL002034,0,0,0,1,0,0,0,0,0,0,0,0,0,0,0,0,0,0,0,0,0,0,0,Y
SL002038,,,,,,,,,,,,,,,,,,,,,,,,Y
SL002039,1,0,0,0,0,0,0,0,0,0,0,0,0,0,0,0,0,0,0,0,0,0,0,Y
SL002040,1,0,0,0,0,0,0,0,0,1,0,0,0,1,0,0,0,0,0,0,0,0,0,Y
SL002041,0,0,0,0,0,0,0,0,0,0,0,0,0,1,0,0,0,0,0,0,0,0,0,Y
SL002042,1,1,1,1,0,0,0,0,0,0,1,0,0,1,0,0,0,0,1,0,0,1,1,Y
SL002048,,,,,,,,,,,,,,,,,,,,,,,,Y
SL002049,,,,,,,,,,,,,,,,,,,,,,,,N
SL002050,1,1,0,0,0,0,0,0,0,0,0,0,0,0,0,0,0,0,0,0,0,0,0,Y
SL002051,,,,,,,,,,,,,,,,,,,,,,,,Y
SL002052,,,,,,,,,,,,,,,,,,,,,,,,Y
SL002055,0,0,0,1,0,0,0,0,0,0,0,0,0,0,0,0,0,0,0,0,0,0,0,N
SL002063,1,0,1,0,0,0,0,0,0,0,0,0,0,0,0,0,0,0,0,0,0,0,0,N
SL002065,0,0,1,1,0,0,0,0,0,0,0,0,0,0,0,0,0,0,1,0,0,0,0,Y
SL002069,0,1,0,1,0,1,1,1,1,0,0,0,1,1,0,0,0,0,0,0,0,1,1,Y
SL002070,1,0,1,0,0,1,0,0,1,0,1,0,1,0,0,0,0,1,0,0,0,0,0,Y
SL002147,0,0,1,1,0,0,0,0,0,0,0,0,0,0,0,0,0,0,0,0,0,0,0,Y
SL002148,0,0,0,0,0,0,0,0,0,0,0,0,0,0,0,0,0,0,0,0,0,0,0,Y
SL002156,,,,,,,,,,,,,,,,,,,,,,,,Y
SL002160,1,0,1,0,0,0,0,1,1,0,0,0,1,0,0,1,0,0,0,0,0,0,0,N
SL002162,,,,,,,,,,,,,,,,,,,,,,,,Y
SL002163,0,0,0,1,1,0,0,0,0,1,0,1,0,1,0,0,1,0,0,0,0,0,0,Y
SL002164,1,0,0,0,0,0,0,0,0,0,0,0,0,0,0,0,0,0,0,0,0,0,0,Y
SL002166,1,0,0,0,0,0,0,0,0,0,0,0,0,0,0,0,0,0,0,0,0,0,0,Y
SL002189,,,,,,,,,,,,,,,,,,,,,,,,Y
SL002192,1,1,1,0,1,1,0,1,1,1,1,0,1,0,1,1,0,0,0,0,0,0,0,N
SL002215,,,,,,,,,,,,,,,,,,,,,,,,Y
SL002232,1,0,1,0,0,0,0,0,0,0,1,1,0,0,0,0,0,1,0,0,0,0,0,N
SL002233,0,0,0,1,0,0,0,0,0,0,0,0,0,0,0,0,0,0,0,0,0,1,1,Y
SL002234,,,,,,,,,,,,,,,,,,,,,,,,Y
SL002235,1,1,0,0,0,1,1,0,0,0,1,0,0,0,0,0,0,1,0,1,0,0,0,Y
SL002236,1,0,0,0,1,0,0,0,0,0,1,1,0,0,0,0,1,1,0,0,1,0,0,Y
SL002237,1,1,0,0,0,1,0,1,0,0,0,0,0,0,1,0,0,0,0,0,0,0,0,Y
SL002290,,,,,,,,,,,,,,,,,,,,,,,,Y
SL002289,,,,,,,,,,,,,,,,,,,,,,,,Y
SL002291,1,0,1,0,0,0,0,0,1,0,0,0,0,0,0,1,0,0,0,0,0,0,0,N
SL002315,1,1,1,0,1,1,1,0,0,0,1,0,1,0,1,0,1,1,0,1,0,0,0,Y
SL002316,,,,,,,,,,,,,,,,,,,,,,,,Y
SL002318,0,0,0,1,0,1,0,1,0,0,0,1,0,0,1,0,0,0,1,0,0,0,0,Y
SL002319,1,0,0,0,0,0,0,0,0,0,0,0,0,0,0,0,0,0,0,0,0,0,0,Y
SL002324,,,,,,,,,,,,,,,,,,,,,,,,Y
SL002446,1,1,1,0,1,1,0,1,1,1,1,0,1,0,1,1,0,0,0,0,0,0,0,Y
SL002447,0,0,0,1,0,1,0,1,1,0,0,0,1,0,0,1,0,0,0,0,0,0,0,Y
SL002452,0,0,1,1,0,0,0,1,1,0,0,0,0,0,0,0,0,1,0,0,0,1,1,Y
SL002453,0,0,1,1,1,0,0,0,0,0,0,1,0,0,0,0,0,0,0,0,0,0,0,Y
SL002455,,,,,,,,,,,,,,,,,,,,,,,,Y
SL002456,1,1,1,0,1,0,1,0,0,0,0,0,0,0,0,0,0,0,0,0,0,1,1,Y
SL002457,,,,,,,,,,,,,,,,,,,,,,,,Y
SL002459,,,,,,,,,,,,,,,,,,,,,,,,Y
SL002460,1,1,0,0,1,1,1,0,0,0,0,0,0,1,0,0,1,0,0,0,0,0,0,Y
SL002489,1,1,1,0,0,0,1,0,0,0,0,0,0,0,0,0,0,0,0,0,0,0,0,Y
SL002491,,,,,,,,,,,,,,,,,,,,,,,,Y
SL002492,1,0,1,0,0,0,0,0,0,0,0,0,0,0,0,0,0,0,0,0,0,0,0,N
SL002494,0,1,1,1,0,0,1,0,0,0,0,0,0,1,0,0,0,0,0,1,0,0,0,Y
SL002495,0,0,0,1,0,0,0,0,0,0,0,0,0,0,0,0,0,0,0,0,0,0,0,Y
SL002496,0,0,0,1,0,0,0,0,0,0,0,0,0,1,0,0,0,0,0,0,0,0,0,Y
SL002497,0,0,0,1,0,0,0,1,1,1,0,0,0,0,0,0,0,0,0,0,0,0,0,Y
SL002498,,,,,,,,,,,,,,,,,,,,,,,,Y
SL002499,0,1,0,1,1,0,1,0,0,0,0,0,0,1,0,0,1,0,0,1,0,0,0,Y
SL002500,,,,,,,,,,,,,,,,,,,,,,,,Y
SL002501,0,1,0,1,1,0,1,0,0,0,0,0,0,1,0,0,1,0,0,1,0,0,0,Y
SL002502,0,1,0,1,1,0,0,0,0,1,0,0,0,0,0,0,0,0,0,0,1,0,0,Y
SL002504,0,0,0,1,0,0,0,0,0,0,0,0,0,0,0,0,0,0,0,0,0,0,0,Y
SL002507,1,1,0,0,1,1,0,1,1,1,0,0,0,0,0,1,0,0,0,0,1,0,0,Y
SL002509,1,1,1,0,0,0,0,0,0,0,0,0,0,0,0,0,0,0,0,0,0,0,0,Y
SL002517,1,0,1,0,0,0,0,0,1,0,0,0,0,0,0,1,0,0,0,0,0,0,0,Y
SL002518,1,1,1,0,0,0,0,0,0,0,0,0,0,0,0,0,0,0,0,0,0,0,0,Y
SL002531,,,,,,,,,,,,,,,,,,,,,,,,Y
SL002562,,,,,,,,,,,,,,,,,,,,,,,,Y
SL002563,0,0,0,1,0,0,0,0,0,0,0,0,0,0,0,0,0,0,0,0,0,0,0,N
SL002584,1,1,1,0,1,0,1,0,0,0,0,0,0,1,0,0,1,0,0,1,0,0,0,Y
SL002585,1,0,0,0,0,0,0,0,0,0,1,0,0,0,0,0,0,0,0,0,0,0,0,Y
SL002586,1,0,1,0,1,0,0,0,0,0,0,1,0,0,0,0,1,0,0,0,0,0,0,Y
SL002587,0,0,1,1,0,0,0,0,0,0,0,0,0,0,0,0,0,0,0,0,0,0,0,Y
SL002588,,,,,,,,,,,,,,,,,,,,,,,,Y
SL002590,0,1,1,1,1,1,0,1,0,1,0,0,0,0,0,0,1,0,0,0,0,0,0,Y
SL002591,,,,,,,,,,,,,,,,,,,,,,,,Y
SL002593,,,,,,,,,,,,,,,,,,,,,,,,N
SL002604,,,,,,,,,,,,,,,,,,,,,,,,N
SL002605,1,0,1,0,0,0,0,1,1,1,1,1,0,0,0,1,0,1,1,0,0,1,1,N
SL002606,0,0,1,1,0,0,0,0,0,0,0,0,0,0,0,0,0,0,0,0,0,0,0,N
SL002662,1,0,1,0,0,0,0,0,0,0,0,1,0,0,0,0,0,0,1,0,0,0,0,Y
SL002663,,,,,,,,,,,,,,,,,,,,,,,,Y
SL002664,1,0,0,0,0,0,0,0,0,0,0,0,0,0,0,0,0,0,0,0,0,1,1,Y
SL002700,,,,,,,,,,,,,,,,,,,,,,,,N
SL002701,,,,,,,,,,,,,,,,,,,,,,,,Y
SL002705,,,,,,,,,,,,,,,,,,,,,,,,N
SL002706,,,,,,,,,,,,,,,,,,,,,,,,Y
SL002708,0,0,1,1,0,0,0,1,1,0,0,0,1,0,0,1,0,0,0,0,0,0,0,Y
SL002709,1,0,0,0,0,1,0,1,0,0,1,0,1,0,1,0,0,0,0,0,0,0,0,Y
SL002711,1,0,0,0,0,0,0,0,0,0,1,0,0,0,0,0,0,0,0,0,0,0,0,Y
SL002721,1,0,1,0,0,0,0,0,0,0,1,0,0,0,0,0,0,0,0,0,0,0,0,Y
SL002722,1,0,1,0,1,0,0,0,0,0,0,1,0,0,0,0,1,0,0,0,0,0,0,Y
SL002723,1,0,1,0,0,0,0,0,0,0,0,0,0,0,0,0,0,0,0,0,0,0,0,Y
SL002724,1,1,0,0,0,1,1,0,0,0,1,0,0,0,0,0,0,0,0,0,1,1,1,Y
SL002727,,,,,,,,,,,,,,,,,,,,,,,,Y
SL002728,1,0,1,0,1,0,0,0,0,0,0,1,0,1,0,0,0,0,0,0,0,0,0,Y
SL002745,,,,,,,,,,,,,,,,,,,,,,,,Y
SL002755,1,0,0,0,0,1,0,0,1,0,1,0,0,1,1,0,0,0,0,0,0,1,1,Y
SL002759,0,0,0,1,0,0,0,0,0,0,0,0,0,0,0,0,0,0,0,0,0,0,0,Y
SL002760,1,0,1,0,0,0,0,0,0,0,0,0,0,0,0,0,0,0,0,0,0,0,0,N
SL002763,1,0,0,0,1,0,0,0,0,1,0,1,1,1,1,0,0,0,0,0,0,0,0,Y
SL002774,0,0,1,1,0,0,0,0,0,0,0,1,0,0,0,0,0,0,0,0,0,0,0,Y
SL002775,,,,,,,,,,,,,,,,,,,,,,,,Y
SL002788,0,0,0,0,0,0,0,0,0,0,0,0,0,0,0,0,0,0,0,0,0,0,0,N
SL002789,1,0,0,0,0,0,0,0,0,0,0,0,0,0,0,0,0,0,0,0,0,1,1,Y
SL002790,,,,,,,,,,,,,,,,,,,,,,,,N
SL002791,,,,,,,,,,,,,,,,,,,,,,,,Y
SL002792,1,0,0,0,0,0,0,0,1,1,0,1,1,0,1,0,0,0,1,0,0,0,0,N
SL002793,1,0,0,1,0,0,0,0,0,0,0,0,0,0,0,0,0,1,0,0,0,0,0,Y
SL002794,1,0,0,0,1,0,0,0,0,1,1,1,0,0,0,0,0,0,0,0,0,0,0,Y
SL002795,,,,,,,,,,,,,,,,,,,,,,,,Y
SL002797,0,0,0,1,0,0,0,0,0,0,0,0,0,0,0,0,0,0,0,0,0,0,0,Y
SL002802,0,0,0,1,0,0,0,0,0,0,0,0,0,0,0,0,0,0,0,0,0,0,0,Y
SL002813,0,0,1,1,0,0,0,0,0,0,0,1,0,1,0,0,0,0,0,0,0,0,0,Y
SL002817,1,0,0,0,0,0,0,0,0,0,0,0,0,0,0,0,0,0,0,0,0,1,1,N
SL002818,0,0,1,1,0,0,0,0,0,0,0,1,0,1,0,0,0,0,0,0,0,0,0,Y
SL002826,0,1,1,0,1,1,1,0,1,0,0,0,0,0,1,1,0,0,0,1,0,1,1,Y
SL002833,1,1,0,0,1,1,0,0,1,1,1,0,1,0,1,0,1,0,0,0,1,0,0,Y
SL002835,,,,,,,,,,,,,,,,,,,,,,,,Y
SL002837,1,1,1,0,1,1,1,0,0,1,0,0,1,0,0,0,0,0,0,1,0,0,0,Y
SL002840,1,1,0,0,1,0,1,0,0,0,0,0,0,0,0,0,0,0,0,0,0,0,0,Y
SL002841,0,0,0,1,0,0,0,0,0,0,0,0,0,0,0,0,0,0,0,0,0,0,0,Y
SL002845,0,1,1,1,0,0,0,0,0,0,0,0,0,0,0,0,0,0,0,0,0,0,0,Y
SL002853,1,0,1,0,0,0,0,0,0,0,0,0,0,0,0,0,0,0,0,0,0,0,0,Y
SL002854,1,0,0,1,0,0,0,0,0,0,1,0,0,0,0,0,0,0,0,0,0,0,0,Y
SL002855,,,,,,,,,,,,,,,,,,,,,,,,Y
SL002861,,,,,,,,,,,,,,,,,,,,,,,,N
SL002862,,,,,,,,,,,,,,,,,,,,,,,,N
SL002863,,,,,,,,,,,,,,,,,,,,,,,,Y
SL002871,1,0,0,0,0,1,0,1,1,0,0,1,1,0,0,1,0,0,1,0,0,0,0,Y
SL002875,,,,,,,,,,,,,,,,,,,,,,,,Y
SL002877,1,0,1,0,0,0,0,1,1,1,1,1,0,0,0,1,0,1,1,0,0,1,1,Y
SL002880,0,1,1,1,0,0,1,1,1,0,0,0,1,0,1,0,0,1,1,1,0,1,1,Y
SL002881,,,,,,,,,,,,,,,,,,,,,,,,N
SL002883,0,0,1,1,0,0,0,0,0,0,0,0,0,0,0,0,0,0,0,0,0,0,0,Y
SL002912,1,1,1,0,1,1,0,1,1,1,1,0,1,0,1,1,0,0,0,0,0,0,0,Y
SL002915,1,1,1,0,0,1,1,0,0,1,0,0,1,1,1,1,0,0,1,0,0,0,0,Y
SL002917,0,1,0,1,0,0,0,0,0,0,0,1,0,0,0,0,0,0,0,0,0,0,0,Y
SL002918,1,0,0,0,0,0,0,0,0,0,0,0,0,0,0,0,0,0,0,0,0,1,1,Y
SL002922,1,0,0,0,0,0,0,0,0,0,1,0,0,0,0,0,0,1,0,0,0,0,0,Y
SL002925,0,0,0,0,0,0,0,1,0,0,0,0,0,0,0,0,0,1,0,0,0,0,0,Y
SL002931,0,0,0,1,0,1,0,1,0,1,0,1,1,0,1,0,0,0,1,0,0,0,0,Y
SL002954,1,0,1,0,0,0,0,0,0,0,0,0,0,0,0,0,0,0,0,0,0,0,0,Y
SL002973,,,,,,,,,,,,,,,,,,,,,,,,Y
SL002990,0,0,0,1,0,0,0,0,0,0,0,0,0,0,0,0,0,0,0,0,0,0,0,Y
SL002992,0,0,0,1,0,0,0,0,1,0,0,0,1,0,0,0,0,0,1,0,0,0,0,Y
SL003028,1,0,1,0,0,0,0,0,0,0,0,0,0,0,0,0,0,0,0,0,0,0,0,Y
SL003029,,,,,,,,,,,,,,,,,,,,,,,,Y
SL003030,1,1,0,0,1,0,1,0,0,0,0,0,0,0,0,0,1,0,0,0,0,0,0,N
SL003032,1,0,1,0,1,0,0,0,0,0,0,1,0,0,0,0,1,0,0,0,0,0,0,N
SL003046,,,,,,,,,,,,,,,,,,,,,,,,Y
SL003047,,,,,,,,,,,,,,,,,,,,,,,,Y
SL003059,1,1,0,0,0,0,0,0,0,0,0,0,0,1,0,0,0,0,0,0,0,0,0,Y
SL003063,,,,,,,,,,,,,,,,,,,,,,,,Y
SL003084,1,1,0,0,0,0,0,0,0,0,0,0,0,0,0,0,0,0,1,0,0,0,0,Y
SL003103,1,0,0,0,0,0,0,0,0,0,0,0,0,0,0,0,0,0,0,0,0,0,0,Y
SL003104,,,,,,,,,,,,,,,,,,,,,,,,Y
SL003106,1,0,1,0,0,0,0,0,0,0,0,1,0,1,0,0,0,0,0,0,0,0,0,N
SL003108,1,0,0,0,0,0,0,0,0,0,0,0,0,0,1,0,0,1,0,0,0,0,0,Y
SL003109,,,,,,,,,,,,,,,,,,,,,,,,Y
SL003110,,,,,,,,,,,,,,,,,,,,,,,,Y
SL003112,,,,,,,,,,,,,,,,,,,,,,,,Y
SL003113,,,,,,,,,,,,,,,,,,,,,,,,Y
SL003118,1,0,1,0,0,0,0,0,0,0,1,0,0,0,0,0,0,0,0,0,0,0,0,Y
SL003119,,,,,,,,,,,,,,,,,,,,,,,,Y
SL003120,,,,,,,,,,,,,,,,,,,,,,,,Y
SL003121,,,,,,,,,,,,,,,,,,,,,,,,Y
SL003127,,,,,,,,,,,,,,,,,,,,,,,,Y
SL003128,,,,,,,,,,,,,,,,,,,,,,,,Y
SL003129,,,,,,,,,,,,,,,,,,,,,,,,Y
SL003142,1,1,0,0,1,1,0,0,0,1,1,0,0,0,0,0,0,0,0,0,1,0,0,Y
SL003143,1,0,1,0,0,0,0,0,0,0,0,1,0,0,0,0,0,0,0,0,0,0,0,Y
SL003147,1,0,0,0,0,1,0,0,0,0,0,0,0,0,0,0,0,0,0,0,0,0,0,Y
SL003158,1,0,0,0,0,1,0,0,0,0,0,0,0,0,0,0,0,0,0,0,0,0,0,Y
SL003218,1,1,0,0,0,0,1,0,0,1,0,0,0,0,0,0,0,0,1,0,0,0,0,N
SL003219,1,0,1,0,1,0,0,1,0,0,1,0,1,0,0,1,0,0,0,0,0,0,0,Y
SL003227,,,,,,,,,,,,,,,,,,,,,,,,Y
SL003228,,,,,,,,,,,,,,,,,,,,,,,,N
SL003229,0,0,1,1,0,0,0,0,0,0,0,1,0,0,0,0,0,0,0,0,0,0,0,Y
SL003230,1,0,0,0,0,0,0,0,0,0,1,0,0,0,0,0,0,0,0,0,0,0,0,Y
SL003231,,,,,,,,,,,,,,,,,,,,,,,,Y
SL003232,1,0,1,0,0,0,0,0,0,0,0,0,0,0,0,0,0,0,0,0,0,0,0,N
SL003233,1,0,1,0,1,0,0,1,0,0,1,1,1,0,0,0,1,1,0,0,1,0,0,Y
SL003242,,,,,,,,,,,,,,,,,,,,,,,,Y
SL003243,0,0,1,1,0,0,0,0,0,0,0,0,0,0,0,0,0,0,0,0,0,0,0,Y
SL003248,1,1,1,0,1,1,1,1,1,0,0,0,1,0,1,0,1,0,0,0,0,0,0,N
SL003249,1,0,0,0,0,0,0,0,0,0,0,0,0,0,0,0,0,0,0,0,0,0,0,Y
SL003250,,,,,,,,,,,,,,,,,,,,,,,,Y
SL003251,,,,,,,,,,,,,,,,,,,,,,,,N
SL003252,1,0,0,0,0,0,0,0,0,0,0,0,0,0,0,0,0,0,0,0,0,0,0,N
SL003269,,,,,,,,,,,,,,,,,,,,,,,,Y
SL003271,,,,,,,,,,,,,,,,,,,,,,,,Y
SL003273,,,,,,,,,,,,,,,,,,,,,,,,N
SL003276,0,1,0,0,0,0,0,0,0,0,0,0,0,0,0,0,0,0,0,0,0,0,0,N
SL003277,1,1,1,0,0,1,1,0,0,0,0,0,0,0,0,0,0,0,0,1,0,0,0,Y
SL003281,1,1,0,0,0,0,0,0,0,1,0,0,0,0,0,0,0,0,1,0,1,0,0,Y
SL003285,,,,,,,,,,,,,,,,,,,,,,,,Y
SL003295,,,,,,,,,,,,,,,,,,,,,,,,N
SL003306,1,1,1,0,1,1,1,1,0,1,1,0,0,1,1,1,1,0,0,0,0,0,0,Y
SL003309,,,,,,,,,,,,,,,,,,,,,,,,N
SL003312,,,,,,,,,,,,,,,,,,,,,,,,N
SL003315,,,,,,,,,,,,,,,,,,,,,,,,Y
SL003316,,,,,,,,,,,,,,,,,,,,,,,,N
SL003330,,,,,,,,,,,,,,,,,,,,,,,,N
SL003341,,,,,,,,,,,,,,,,,,,,,,,,Y
SL003348,1,0,1,0,0,0,0,0,0,0,0,1,0,0,0,0,0,0,0,0,0,0,0,Y
SL000196,,,,,,,,,,,,,,,,,,,,,,,,N
SL001194,1,1,1,0,1,1,1,0,0,0,1,0,1,0,1,0,1,1,0,1,0,0,0,N
SL001248,0,1,0,1,0,1,1,1,1,0,0,0,1,1,0,0,0,0,0,0,0,1,1,N
SL001249,,,,,,,,,,,,,,,,,,,,,,,,N
SL001250,0,0,1,1,1,0,0,0,0,0,0,1,0,0,0,0,0,0,0,0,0,0,0,N
SL001251,0,0,0,0,0,0,0,0,0,0,0,0,0,0,0,0,0,0,0,0,0,0,0,N
SL001252,0,0,0,0,0,0,0,0,0,0,0,0,0,1,0,0,0,0,0,0,0,0,0,N
SL001253,,,,,,,,,,,,,,,,,,,,,,,,N
SL001254,,,,,,,,,,,,,,,,,,,,,,,,N
SL001260,1,1,1,0,0,0,0,0,0,0,0,0,0,0,0,0,0,0,0,0,0,0,0,N
SL001276,,,,,,,,,,,,,,,,,,,,,,,,N
SL001277,,,,,,,,,,,,,,,,,,,,,,,,N
SL001278,,,,,,,,,,,,,,,,,,,,,,,,N
SL001282,,,,,,,,,,,,,,,,,,,,,,,,N
SL001284,1,0,1,0,0,0,0,0,0,0,0,0,0,0,0,0,0,0,0,0,0,0,0,N
SL001285,,,,,,,,,,,,,,,,,,,,,,,,N
SL001286,0,0,1,0,0,1,0,0,0,1,0,0,0,0,0,0,0,0,0,0,0,0,0,N
SL001287,0,1,0,1,1,1,1,0,1,1,0,0,1,0,0,0,1,0,0,0,1,1,1,N
SL001288,,,,,,,,,,,,,,,,,,,,,,,,N
SL001289,1,1,0,0,0,1,1,0,0,1,1,0,0,1,1,0,0,0,1,0,0,0,0,N
SL001290,1,0,0,0,1,0,0,0,0,0,1,1,0,0,0,0,1,1,0,0,1,0,0,N
SL001291,,,,,,,,,,,,,,,,,,,,,,,,N
SL001292,1,1,0,0,1,1,0,0,1,1,0,0,1,0,1,0,0,0,0,0,1,0,0,N
SL001293,0,0,0,0,0,0,0,0,0,0,0,0,0,0,0,0,0,0,0,0,0,0,0,N
SL001307,,,,,,,,,,,,,,,,,,,,,,,,N
SL001320,0,0,0,1,0,1,0,1,1,0,0,1,1,0,0,0,0,1,1,0,0,0,0,N
SL001324,1,0,0,0,0,1,0,0,0,0,0,0,0,0,0,0,0,1,0,0,1,0,0,N
SL001359,,,,,,,,,,,,,,,,,,,,,,,,N
SL001447,,,,,,,,,,,,,,,,,,,,,,,,N
SL001448,,,,,,,,,,,,,,,,,,,,,,,,N
SL001449,,,,,,,,,,,,,,,,,,,,,,,,N
SL001450,,,,,,,,,,,,,,,,,,,,,,,,N
SL001451,,,,,,,,,,,,,,,,,,,,,,,,N
SL001452,0,0,0,1,0,0,0,0,0,0,0,1,0,0,0,0,0,0,0,0,0,0,0,N
SL001454,,,,,,,,,,,,,,,,,,,,,,,,N
SL001456,,,,,,,,,,,,,,,,,,,,,,,,N
SL001457,,,,,,,,,,,,,,,,,,,,,,,,N
SL001458,0,0,0,1,0,1,0,1,1,0,0,0,1,0,0,1,0,0,0,0,0,0,0,N
SL001459,0,0,0,1,0,1,0,1,1,0,0,1,1,0,0,0,0,1,1,0,0,0,0,N
SL001495,,,,,,,,,,,,,,,,,,,,,,,,N
SL001496,1,1,0,0,1,1,0,1,1,1,0,0,0,0,0,1,0,0,0,0,1,0,0,Y
SL001501,1,0,1,0,0,1,0,0,1,0,1,0,1,0,0,0,0,1,0,0,0,0,0,N
SL001506,1,0,0,0,0,0,0,0,0,0,0,0,0,0,0,0,0,0,0,0,0,0,0,N
SL001534,1,1,0,0,1,1,1,1,1,0,1,0,0,0,1,1,1,0,0,1,1,0,0,N
SL001560,1,0,0,1,0,1,0,1,0,0,1,0,1,0,0,1,0,0,0,0,0,0,0,Y
SL001562,,,,,,,,,,,,,,,,,,,,,,,,N
SL001613,,,,,,,,,,,,,,,,,,,,,,,,N
SL001614,1,0,0,0,1,1,0,1,1,0,1,0,1,0,1,1,1,1,0,0,0,0,0,N
SL001686,1,0,0,0,1,1,0,1,1,0,1,0,1,0,1,1,1,1,0,0,0,0,0,N
SL001712,,,,,,,,,,,,,,,,,,,,,,,,N
SL001771,1,1,1,0,1,0,1,1,1,0,1,0,0,0,0,1,1,0,0,0,0,0,0,Y
SL001799,1,1,1,0,1,0,1,0,0,0,0,0,0,0,0,0,1,0,0,1,0,0,0,Y
SL001823,1,0,0,0,0,0,0,0,0,0,0,0,0,0,0,0,0,0,0,0,0,0,0,N
SL002174,1,0,0,0,0,0,0,0,0,0,0,0,0,0,0,0,0,0,0,0,0,0,0,Y
SL002317,1,0,1,0,0,1,0,0,1,0,1,0,1,0,0,0,0,1,0,0,0,0,0,N
SL002704,1,0,0,0,0,0,0,0,0,0,0,0,0,0,0,0,0,0,0,0,0,0,0,Y
SL002878,,,,,,,,,,,,,,,,,,,,,,,,N
SL002913,1,1,0,0,1,1,1,0,0,0,0,0,0,0,0,0,1,0,0,1,1,0,0,Y
SL002974,1,0,1,0,0,1,0,0,1,0,1,0,1,0,0,0,0,1,0,0,0,0,0,Y
SL003107,0,0,0,1,0,0,0,0,0,0,0,0,0,0,0,0,0,0,0,0,0,0,0,N
SL003117,1,0,0,1,0,0,0,0,0,0,0,0,0,0,0,0,0,0,0,0,0,0,0,Y
SL003144,0,0,1,1,0,0,0,0,0,0,0,0,0,0,0,0,0,0,0,0,0,0,0,Y
SL003247,1,0,1,0,0,0,0,0,0,0,0,1,0,0,0,0,0,0,0,0,0,0,0,N
