ID,1.ANSYS利用立場,2.導入時に期待したことを実現できた,3.ANSYS利用頻度,5-a.今後行いたい解析,5-c.今後行いたい解析の分類,6.サポート窓口の感想,7.担当営業の感想,NPS,9.エンジニアリングサービスの関心,10.教育プログラムの関心,旧製品フラグ,現在行なっている解析(分類2)
1,B&C,8,A,Y,N,A&B,B,8,N,N,,K
2,A,5,C,Y,K,D,D,5,N,Y,,K
3,A,8,B,Y,D&M,C,C,8,N,N,,M
4,A,7,D,Y,N,B&C,A,7,N,N,1,K
5,B&C,6,D,Y,N&M,A&B,A&B&C,7,Y,Y,1,
6,A,5,A,Y,K,C,C,5,N,N,,
7,A,9,B,N,,C,C,7,N,N,1,K
8,B&C,8,A,Y,K,C,D,6,N,Y,,
9,C,5,D,N,,C,C,5,Y,Y,,S
10,B,7,A,N,,A&B,C,8,N,N,1,
11,B,5,C,N,,C,C,5,N,Y,1,K
12,D,5,C,N,,C,A,5,U,Y,,K
13,A,9,A,Y,M,A&B,A,8,N,Y,,K
14,C,6,A,N,,A&C,B&C,6,N,Y,1,K
15,B&C,2,D,Y,M,B,D,3,N,N,,
16,C&D,8,A,Y,N,A&B&D,B&C,3,Y,Y,,
17,A&B,5,C,N,,B,C,6,N,Y,,K
18,B,6,C,Y,K,C,C,5,U,Y,,K
19,A,5,A,Y,D,C,C,8,N,U,,K
20,B,5,A,Y,K,B,C,8,Y,Y,1,S
21,A,5,D,N,,C,B,5,Y,Y,,K
22,A&B&C,5,C,Y,D,A&B&C,C,5,Y,Y,,S
23,A&B,5,D,Y,K,D,C,5,N,Y,,K
24,B,8,A,N,,C,A&C,6,N,Y,1,
25,A,7,C,N,,A&B,C,6,N,Y,,S
26,B,2,D,Y,K,A&B,A,8,Y,Y,,
27,A,7,D,Y,K,C,C,7,Y,Y,,
28,A,8,B,Y,K,C,D,8,Y,Y,1,K
29,A&B&C,7,A,Y,K,A&D,B&C,3,Y,U,,
30,B,2,D,Y,M,B,C,3,N,N,1,M
31,A,3,D,Y,M,C,C,4,N,N,,K
32,B,7,A,Y,N,A&B&C,B&C,8,Y,Y,,N
33,B,6,A,Y,K,A&B&C,A,7,Y,Y,1,K
34,A,8,B,Y,K,A&C,B&C,8,N,N,,K
35,A&B,6,D,Y,K,B,A,5,Y,N,,K
36,A&B,4,A,Y,K&N,C,C,5,N,U,,K
37,A&C,8,A,N,,A,A,8,Y,Y,1,S
38,A&B,6,D,Y,M&O,C,C,9,Y,Y,,
39,A,8,B,Y,N,A&B&C,B&C&D,8,Y,Y,1,S
40,A&B&C,7,B,N,,A&B&C,A&C,9,Y,Y,,
41,A,8,A,N,,A&B&C,C,8,Y,Y,1,M
42,B&C,7,B,Y,K,C,C,6,N,Y,,
43,B,7,B,Y,K,A&C,A,7,N,Y,,K
44,B,7,B,Y,N,A,B,7,N,Y,,
45,A,2,B,N,,A,C,3,N,Y,,
46,C,7,D,N,,C,A,8,N,N,,M
47,B&C,7,A,Y,N,A&B,A&B,7,Y,Y,,N
48,A,7,B,Y,M,B,C,7,N,Y,,K
49,A&B,8,A,Y,K,A&B&C,A&B&C,8,N,Y,,S
50,A,7,C,Y,N,C,C,6,N,Y,1,
51,A,5,C,Y,S,A&C,C,6,N,U,,K
52,A&B&C,8,A,Y,M,A&C,C,7,Y,Y,1,D
53,A,10,B,N,,C,C,5,N,N,,K
54,B&C,6,C,Y,K,C,C,5,Y,Y,1,
55,D,5,B,N,,C,C,5,N,Y,,
56,D,8,C,N,,A,C,7,N,N,1,M
57,B,10,B,Y,M,A&B,A&B,10,U,U,,M
58,A,3,C,Y,K,C,C,7,N,Y,,K
59,A,3,B,Y,M,C,C,3,Y,Y,,
60,A,3,A,Y,K,B,D,2,N,Y,,K
61,B,10,D,Y,K,C,C,8,Y,Y,,
62,A,10,B,N,,A&C,A&C,5,N,Y,,
63,B,3,C,Y,K,C,C,8,N,Y,,
64,A&B&C,5,B,Y,N,A&C,C,3,Y,Y,1,K
65,A&C,6,B,Y,S,A&C,C,6,N,N,,
66,D,10,D,Y,M,C,C,5,N,N,1,K
67,B,7,C,Y,M,A,A,8,Y,Y,,
68,A&C,3,C,Y,K,C,C,3,N,U,,K
69,B&C,5,B,Y,D,C,C,5,N,Y,,
70,A,3,B,Y,D,C,C,5,N,Y,,S
71,A&C,5,B,N,,C,C,5,N,Y,,
72,A,10,A,Y,K,A&C,C,10,N,N,,H
73,A&B&C,2,C,Y,K,C,C,7,N,Y,,SS
74,A&B&C,8,A,Y,K,A,A,8,Y,N,,
75,C,8,A,Y,K,C,A,8,N,N,,
76,A,9,D,Y,K,A&B,A&B,7,Y,N,1,K
77,B&C,8,A,Y,N,A,A,8,N,Y,1,
78,A&C,4,D,Y,O,C,C,5,Y,N,,
79,B,10,D,N,,A&C,C,9,N,Y,,K
80,B&C,6,B,Y,S,A,C,4,Y,Y,,
81,A&C,0,D,N,,C,C,0,N,N,1,
82,B,10,C,N,,C,C,5,Y,U,,K
83,A&B&C,7,A,Y,N,A&B&C,A&B&C,2,N,Y,1,K
84,A&B&C,8,D,Y,D,A&B&C,A&C,8,Y,Y,,D
85,A,6,B,Y,K,C,C,7,N,Y,1,
86,B,5,C,Y,K,C,C,7,N,Y,1,K
87,A,3,D,N,,C,C,4,N,Y,,
88,B&C,8,A,Y,K,A&B&C,C,9,N,N,,SS
89,A,5,B,N,,C,D,5,N,Y,,
90,A,8,B,Y,N,A&B&C,A&C,8,N,U,,
91,C,10,D,N,,C,B&C,5,N,N,,SS
92,A&B,9,A,Y,K,A&B&C,A&C,9,N,Y,1,
93,A,10,B,N,,C,C,5,N,Y,,
94,A,10,C,N,,C,C,5,N,N,1,
95,B,6,B,Y,K,C,C,7,Y,Y,,
96,A&B&C,5,B,Y,K,C,D,8,Y,Y,,
97,A&C,8,B,N,,C,C,7,N,Y,1,K
98,A,3,B,Y,K,A&B&C,A&B&C,1,N,Y,,
99,B,3,D,Y,D,A&B,B,6,N,Y,,K
100,A,5,D,N,,C,C,5,N,N,1,K
101,C&D,8,A,Y,D,A&B,C,5,U,N,1,M
102,A&B,9,A,Y,K,A&B&C,A&B&C,9,Y,Y,1,
103,A,5,D,Y,N,C,C,4,Y,Y,1,D
104,A&B,5,A,Y,K,B&C,C,5,N,U,1,K
105,A&B&C,9,A,Y,N,A&B&C,A&B&C,5,N,Y,,
106,D,6,A,Y,K,C,A,6,N,N,1,K
107,A,7,A,Y,K,C,C,7,Y,Y,,
108,C&D,5,A,Y,M,A&B&C,A&C,7,U,U,1,
109,A,8,B,Y,N,C,C,8,N,Y,,
110,C,8,A,N,,A&C,A&C,10,N,N,1,
111,C,7,B,Y,K,B,A,8,N,Y,,
112,A,8,B,N,,C,C,7,N,N,1,
113,A,5,C,N,,C,C,5,N,N,1,
114,B,5,B,Y,K,B,B,5,N,Y,,
115,A&B&C,3,D,N,,C,C,3,N,N,1,K
116,A,8,C,N,,C,C,8,N,Y,,S
117,B&C,10,B,N,,C,C,10,N,Y,1,K
118,A,6,D,Y,K,C,C,7,N,Y,,K
119,A,7,A,N,,C,C,5,N,N,,S
120,A&B,7,B,Y,S,A,C,5,N,Y,,SS
121,A,5,A,Y,K,C,C,5,N,N,1,
122,A&C,6,A,Y,K,C,C,6,N,N,1,K
123,A,6,D,N,,A&B&C,A&C,7,N,N,1,K
124,B,7,B,Y,K,A&B,C,8,U,Y,1,M
125,D,5,D,N,,C,C,4,N,Y,,S
126,C,5,B,N,,C,C,5,N,N,1,
127,A,8,B,Y,K,C,C,8,N,N,,K
128,B,6,C,Y,M,B&D,D,7,U,U,,
129,A,5,C,N,,A,C,6,N,N,1,K
130,B&C,4,D,Y,K,A,B,3,Y,Y,1,M
131,A,6,D,Y,O&W,C,C,5,Y,Y,,
132,A,5,D,N,,C,C,5,N,Y,1,
133,A&B&C,6,A,Y,K,B&D,C,8,N,Y,,M
134,A,3,D,N,,C,C,5,N,N,1,K
135,A,8,C,Y,M,A&B&C,B,7,N,N,1,K
136,A,8,D,N,,C,C,8,N,Y,1,M
137,A,3,D,Y,K,A&C,C,4,N,Y,1,K
138,A&C,7,C,Y,N,A,B,6,Y,Y,1,K
139,A&B,8,B,Y,K&AM,B,B,8,Y,Y,,
140,B,8,B,N,,C,C,7,N,N,1,M
141,B,5,C,Y,K,C,C,5,N,Y,,
142,A&B,1,D,Y,K,D,D,5,Y,Y,1,
143,B,8,C,Y,D,A&C,C,8,Y,Y,1,S
144,B,8,B,Y,D,A&B,A,8,N,Y,,K
145,A&B,6,C,Y,K,C,C,5,Y,Y,1,K
146,A,8,C,Y,K,C,C,8,N,Y,,
147,A,4,D,Y,K&D,A&B&C,A&B&C,4,Y,Y,,
148,A,5,D,N,,C,C,5,Y,Y,,K
149,A,3,D,Y,K,A,A,4,N,Y,1,K
150,B&C,5,C,N,,C,C,7,N,Y,,K
151,B,8,D,N,,C,C,8,N,N,1,
152,A,7,B,N,,C,C,,N,N,,
153,A&C,8,C,N,,A&C,B,7,N,U,,K
154,B,2,D,Y,N,C,C,3,N,U,,
155,A&C,2,D,Y,K,C,C,3,N,U,,K
156,A&B&C,5,D,N,,C,C,5,N,N,,
157,B&C,4,B,Y,N,C,C,5,Y,Y,,
158,C,8,C,N,,C,C,5,N,N,,S
159,A,3,B,Y,N,A&B&C,C,5,N,Y,,
160,D,5,D,N,,C,C,5,N,N,,
161,B,8,B,Y,K,A&B,B&C,5,N,Y,1,K
162,B&C,7,C,N,,C,C,8,Y,Y,1,
163,A&C,3,C,N,,D,A,6,N,Y,,K
164,A&B&C,10,C,Y,K,C,C,8,U,Y,,K
165,A,7,C,N,,C,C,7,Y,Y,,D
166,A&B&C,8,C,N,,C,C,8,N,Y,,
167,A,8,C,N,,C,C,5,N,N,,N
168,B,5,D,Y,K,C,D,1,Y,Y,1,S
169,A&C,3,D,Y,K,C,C,3,N,Y,1,
170,B,4,A,Y,N,C,C,4,Y,Y,,N
171,B,5,D,N,,C,C,5,Y,Y,,M
172,A&B&C,1,D,N,,C,C,1,Y,Y,,
173,A,7,A,Y,N,C,C,7,Y,Y,,
174,B,7,D,N,,C,C,7,N,N,,S
175,A&B,5,A,N,,C,C,6,N,Y,,K
176,A&B&C,4,D,Y,N&M,B&C,C,6,Y,Y,,S
177,A,5,D,Y,K,A,B,5,N,Y,1,
178,B,5,C,Y,K,A&B&C,C,5,N,Y,1,K
179,B,8,A,N,,A&B&C,C,8,U,U,,
180,B,8,A,Y,N,C,C,8,Y,Y,,M
181,A&C,7,C,N,,C,C,7,N,Y,1,
182,A,8,A,Y,K,C,B&C,8,U,N,1,M
183,A,5,D,Y,K,C,C,5,Y,Y,,K
184,A,5,D,Y,S,C,C,6,N,N,,K
185,A&B&C,4,B,Y,K,A&B,C,6,Y,Y,,