導入時の期待を実現できた,NPS,エンジニアリングサービスへの関心,教育プログラムへの関心,今後行いたい解析がある,今後行いたい解析,契約
,,0,0,1,B,N
0,0,0,1,1,A,N
,,0,0,1,C,N
,,0,0,1,B,Y
0,,1,1,1,B,Y
0,0,0,0,1,A,Y
1,,0,0,0,,Y
,0,0,1,1,A,Y
0,0,1,1,0,,N
,,0,0,0,,Y
0,0,0,1,0,,N
0,0,1,1,0,,Y
1,,0,1,1,D,N
0,0,0,1,0,,N
0,0,0,0,1,D,Y
,0,1,1,1,B,N
0,0,0,1,0,,N
0,0,1,1,1,C,Y
0,,0,1,1,C,Y
0,,1,1,1,A,N
0,0,1,1,0,,Y
0,0,1,1,1,C,N
0,0,0,1,1,A,Y
,0,0,1,0,,N
,0,0,1,0,,Y
0,,1,1,1,A,N
,,1,1,1,C,Y
,,1,1,1,A,Y
,0,1,1,1,A,N
0,0,0,0,1,D,Y
0,0,0,0,1,D,Y
,,1,1,1,B,N
0,,1,1,1,A,N
,,0,0,1,A,Y
0,0,1,0,1,A,Y
0,0,0,1,1,A,Y
,,1,1,0,,Y
0,1,1,1,1,D,Y
,,1,1,1,B,Y
,1,1,1,0,,N
,,1,1,0,,Y
,0,0,1,1,A,Y
,,0,1,1,E,N
,,0,1,1,B,N
0,0,0,1,0,,Y
,,0,0,0,,Y
,,1,1,1,B,Y
,,0,1,1,D,Y
,,0,1,1,A,Y
,0,0,1,1,B,N
0,0,0,1,1,E,N
,,1,1,1,D,N
1,0,0,0,0,,Y
0,0,1,1,1,A,Y
0,0,0,1,0,,Y
,,0,0,0,,N
1,1,1,1,1,D,N
0,,0,1,1,A,Y
0,0,1,1,1,D,Y
0,0,0,1,1,A,N
1,,1,1,1,C,N
1,0,0,1,0,,Y
0,,0,1,1,A,N
0,0,1,1,1,B,N
0,0,0,0,1,E,Y
1,0,0,0,1,D,N
,,1,1,1,D,N
0,0,0,1,1,A,Y
0,0,0,1,1,C,N
0,0,0,1,1,C,N
0,0,0,1,0,,Y
1,1,0,0,1,A,N
0,,0,1,1,A,Y
,,1,0,1,A,Y
,,0,0,1,A,Y
1,,1,0,1,A,N
,,0,1,1,B,Y
0,0,1,0,1,C,Y
1,1,0,1,0,,N
0,0,1,1,1,E,Y
0,0,0,0,0,,Y
1,0,1,1,0,,Y
,0,0,1,1,B,Y
,,1,1,1,C,N
0,,0,1,1,A,N
0,,0,1,1,A,Y
0,0,0,1,0,,N
,1,0,0,1,A,Y
0,0,0,1,0,,Y
,,0,1,1,B,Y
1,0,0,0,0,,N
1,1,0,1,1,D,Y
1,0,0,1,0,,Y
1,0,0,0,0,,Y
0,,1,1,1,A,N
0,,1,1,1,B,Y
,,0,1,0,,N
0,0,0,1,1,A,Y
0,0,0,1,1,C,Y
0,0,0,0,0,,Y
,0,1,0,1,C,Y
1,1,1,1,1,D,Y
0,0,1,1,1,B,Y
0,0,0,1,1,A,Y
1,0,0,1,1,B,Y
0,0,0,0,1,B,N
,,1,1,1,A,N
0,,1,1,1,D,Y
,,0,1,1,B,N
,1,0,0,0,,Y
,,0,1,1,B,Y
,,0,0,0,,N
0,0,0,0,0,,Y
0,0,0,1,1,B,Y
0,0,0,0,0,,Y
,,0,1,0,,Y
1,1,0,1,0,,Y
0,,0,1,1,A,N
,0,0,0,0,,N
,0,0,1,1,E,Y
0,0,0,0,1,E,Y
0,0,0,0,1,A,Y
0,,0,0,0,,N
,,1,1,1,A,Y
0,0,0,1,0,,Y
0,0,0,0,0,,Y
,,0,0,1,D,Y
0,,1,1,1,D,Y
0,0,0,0,0,,Y
0,0,1,1,1,E,Y
0,0,1,1,1,E,N
0,0,0,1,0,,Y
0,,0,1,1,A,N
0,0,0,0,0,,Y
,,0,0,1,D,Y
,,0,1,0,,Y
0,0,0,1,1,A,N
,0,1,1,1,B,Y
,,1,1,1,A,Y
,,0,0,0,,Y
0,0,0,1,1,A,Y
0,0,1,1,1,A,Y
,,1,1,1,C,N
,,0,1,1,C,N
0,0,1,1,1,A,N
,,0,1,1,A,Y
0,0,1,1,1,A,Y
0,0,1,1,0,,Y
0,0,0,1,1,C,Y
0,,0,1,0,,Y
,,0,0,0,,Y
,,0,0,0,,Y
,,0,1,0,,Y
0,0,0,1,1,B,Y
0,0,0,1,1,A,Y
0,0,0,0,0,,Y
0,0,1,1,1,B,Y
,0,0,0,0,,Y
0,0,0,1,1,B,N
0,0,0,0,0,,Y
,0,0,1,1,A,Y
,,1,1,0,,N
0,0,0,1,0,,Y
1,,1,1,1,A,N
,,1,1,0,,Y
,,0,1,0,,N
,0,0,0,0,,Y
0,0,1,1,1,A,Y
0,0,0,1,1,A,Y
0,0,1,1,1,B,Y
0,0,1,1,0,,Y
0,0,1,1,0,,Y
,,1,1,1,E,Y
,,0,0,0,,N
0,0,0,1,0,,Y
0,0,1,1,1,B,N
0,0,0,1,1,A,Y
0,0,0,1,1,B,Y
,,1,1,0,,N
,,1,1,1,B,Y
,,0,1,0,,Y
,,1,0,1,B,Y
0,0,1,1,1,B,Y
0,0,0,0,1,E,Y
0,0,1,1,1,C,Y