導入時の期待を実現できた,ANSYS利用頻度,現在行なっている解析,NPS,エンジニアリングサービスへの関心,教育プログラムへの関心,今後行いたい解析がある,今後行いたい解析
,E,K,,0,0,1,B
0,M,K,0,0,1,1,A
,W,M,,0,0,1,C
,T,K,,0,0,1,B
0,T,,,1,1,1,B
0,E,,0,0,0,1,A
1,W,K,,0,0,0,
,E,,0,0,1,1,A
0,T,O,0,1,1,0,
,E,,,0,0,0,
0,M,K,0,0,1,0,
0,M,K,0,1,1,0,
1,E,K,,0,1,1,D
0,E,K,0,0,1,0,
0,T,,0,0,0,1,D
,E,,0,1,1,1,B
0,M,K,0,0,1,0,
0,M,K,0,1,1,1,C
0,E,K,,0,1,1,C
0,E,O,,1,1,1,A
0,T,K,0,1,1,0,
0,M,O,0,1,1,1,C
0,T,K,0,0,1,1,A
,E,,0,0,1,0,
,M,O,0,0,1,0,
0,T,,,1,1,1,A
,T,,,1,1,1,C
,W,K,,1,1,1,A
,E,,0,1,1,1,A
0,T,M,0,0,0,1,D
0,T,K,0,0,0,1,D
,E,N,,1,1,1,B
0,E,K,,1,1,1,A
,W,K,,0,0,1,A
0,T,K,0,1,0,1,A
0,E,K,0,0,1,1,A
,E,O,,1,1,0,
0,T,,1,1,1,1,D
,W,O,,1,1,1,B
,W,,1,1,1,0,
,E,M,,1,1,0,
,W,,0,0,1,1,A
,W,K,,0,1,1,E
,W,,,0,1,1,B
0,W,,0,0,1,0,
,T,M,,0,0,0,
,E,N,,1,1,1,B
,W,K,,0,1,1,D
,E,O,,0,1,1,A
,M,,0,0,1,1,B
0,M,K,0,0,1,1,E
,E,D,,1,1,1,D
1,W,K,0,0,0,0,
0,M,,0,1,1,1,A
0,W,,0,0,1,0,
,M,M,,0,0,0,
1,W,M,1,1,1,1,D
0,M,K,,0,1,1,A
0,W,,0,1,1,1,D
0,E,K,0,0,1,1,A
1,T,,,1,1,1,C
1,W,,0,0,1,0,
0,M,,,0,1,1,A
0,W,K,0,1,1,1,B
0,W,,0,0,0,1,E
1,T,K,0,0,0,1,D
,M,,,1,1,1,D
0,M,K,0,0,1,1,A
0,W,,0,0,1,1,C
0,W,O,0,0,1,1,C
0,W,,0,0,1,0,
1,E,H,1,0,0,1,A
0,M,S,,0,1,1,A
,E,,,1,0,1,A
,E,,,0,0,1,A
1,T,K,,1,0,1,A
,E,,,0,1,1,B
0,T,,0,1,0,1,C
1,T,K,1,0,1,0,
0,W,,0,1,1,1,E
0,T,,0,0,0,0,
1,M,K,0,1,1,0,
,E,K,0,0,1,1,B
,T,D,,1,1,1,C
0,W,,,0,1,1,A
0,M,K,,0,1,1,A
0,T,,0,0,1,0,
,E,S,1,0,0,1,A
0,W,,0,0,1,0,
,W,,,0,1,1,B
1,T,S,0,0,0,0,
1,E,,1,0,1,1,D
1,W,,0,0,1,0,
1,M,,0,0,0,0,
0,W,,,1,1,1,A
0,W,,,1,1,1,B
,W,K,,0,1,0,
0,W,,0,0,1,1,A
0,T,K,0,0,1,1,C
0,T,K,0,0,0,0,
,E,M,0,1,0,1,C
1,E,,1,1,1,1,D
0,T,D,0,1,1,1,B
0,E,K,0,0,1,1,A
1,E,,0,0,1,1,B
0,E,K,0,0,0,1,B
,E,,,1,1,1,A
0,E,,,1,1,1,D
,W,,,0,1,1,B
,E,,1,0,0,0,
,W,,,0,1,1,B
,W,,,0,0,0,
0,M,,0,0,0,0,
0,W,,0,0,1,1,B
0,T,K,0,0,0,0,
,M,O,,0,1,0,
1,W,K,1,0,1,0,
0,T,K,,0,1,1,A
,E,O,0,0,0,0,
,W,S,0,0,1,1,E
0,E,,0,0,0,1,E
0,E,K,0,0,0,1,A
0,T,K,,0,0,0,
,W,M,,1,1,1,A
0,T,O,0,0,1,0,
0,W,,0,0,0,0,
,W,K,,0,0,1,D
0,M,,,1,1,1,D
0,M,K,0,0,0,0,
0,T,M,0,1,1,1,E
0,T,,0,1,1,1,E
0,T,,0,0,1,0,
0,E,M,,0,1,1,A
0,T,K,0,0,0,0,
,M,K,,0,0,1,D
,T,M,,0,1,0,
0,T,K,0,0,1,1,A
,M,K,0,1,1,1,B
,W,,,1,1,1,A
,W,M,,0,0,0,
0,M,,0,0,1,1,A
0,T,,0,1,1,1,A
,M,O,,1,1,1,C
,W,K,,0,1,1,C
0,M,K,0,1,1,1,A
,M,,,0,1,1,A
0,T,,0,1,1,1,A
0,T,K,0,1,1,0,
0,T,K,0,0,1,1,C
0,M,K,,0,1,0,
,T,,,0,0,0,
,W,,,0,0,0,
,M,K,,0,1,0,
0,T,,0,0,1,1,B
0,T,K,0,0,1,1,A
0,T,,0,0,0,0,
0,W,,0,1,1,1,B
,M,O,0,0,0,0,
0,W,,0,0,1,1,B
0,T,,0,0,0,0,
,W,K,0,0,1,1,A
,M,,,1,1,0,
0,M,K,0,0,1,0,
1,M,K,,1,1,1,A
,M,D,,1,1,0,
,M,,,0,1,0,
,M,N,0,0,0,0,
0,T,O,0,1,1,1,A
0,T,,0,0,1,1,A
0,E,N,0,1,1,1,B
0,T,M,0,1,1,0,
0,T,,0,1,1,0,
,E,,,1,1,1,E
,T,O,,0,0,0,
0,E,K,0,0,1,0,
0,T,O,0,1,1,1,B
0,T,,0,0,1,1,A
0,M,K,0,0,1,1,B
,E,,,1,1,0,
,E,M,,1,1,1,B
,M,,,0,1,0,
,E,M,,1,0,1,B
0,T,K,0,1,1,1,B
0,T,K,0,0,0,1,E
0,W,,0,1,1,1,C