ID,ANSYS利用立場,導入時の期待を実現できた,ANSYS利用頻度,現在行なっている解析,窓口感想,担当営業感想,NPS,エンジニアリングサービスへの関心,教育プログラムへの関心,今後行いたい解析がある,今後行いたい解析,契約
1,"B, C",,E,K,"A, B",B,,0,0,1,B,N
2,A,0,M,K,D,D,0,0,1,1,A,N
3,A,,W,M,C,C,,0,0,1,C,N
4,A,,T,K,"B, C",A,,0,0,1,B,Y
5,"B, C",0,T,,"A, B","A, B, C",,1,1,1,B,Y
6,A,0,E,,C,C,0,0,0,1,A,Y
7,A,1,W,K,C,C,,0,0,0,,Y
8,"B, C",,E,,C,D,0,0,1,1,A,Y
9,C,0,T,O,C,C,0,1,1,0,,N
10,B,,E,,"A, B",C,,0,0,0,,Y
11,B,0,M,K,C,C,0,0,1,0,,N
12,D,0,M,K,C,A,0,1,1,0,,Y
13,A,1,E,K,"A, B",A,,0,1,1,D,N
14,C,0,E,K,"A, C","B, C",0,0,1,0,,N
15,"B, C",0,T,,B,D,0,0,0,1,D,Y
16,"C, D",,E,,"A, B, D","B, C",0,1,1,1,B,N
17,"A, B",0,M,K,B,C,0,0,1,0,,N
18,B,0,M,K,C,C,0,1,1,1,C,Y
19,A,0,E,K,C,C,,0,1,1,C,Y
20,B,0,E,O,B,C,,1,1,1,A,N
21,A,0,T,K,C,B,0,1,1,0,,Y
22,"A, B, C",0,M,O,"A, B, C",C,0,1,1,1,C,N
23,"A, B",0,T,K,D,C,0,0,1,1,A,Y
24,B,,E,,C,"A, C",0,0,1,0,,N
25,A,,M,O,"A, B",C,0,0,1,0,,Y
26,B,0,T,,"A, B",A,,1,1,1,A,N
27,A,,T,,C,C,,1,1,1,C,Y
28,A,,W,K,C,D,,1,1,1,A,Y
29,"A, B, C",,E,,"A, D","B, C",0,1,1,1,A,N
30,B,0,T,M,B,C,0,0,0,1,D,Y
31,A,0,T,K,C,C,0,0,0,1,D,Y
32,B,,E,N,"A, B, C","B, C",,1,1,1,B,N
33,B,0,E,K,"A, B, C",A,,1,1,1,A,N
34,A,,W,K,"A, C","B, C",,0,0,1,A,Y
35,"A, B",0,T,K,B,A,0,1,0,1,A,Y
36,"A, B",0,E,K,C,C,0,0,1,1,A,Y
37,"A, C",,E,O,A,A,,1,1,0,,Y
38,"A, B",0,T,,C,C,1,1,1,1,D,Y
39,A,,W,O,"A, B, C","B, C, D",,1,1,1,B,Y
40,"A, B, C",,W,,"A, B, C","A, C",1,1,1,0,,N
41,A,,E,M,"A, B, C",C,,1,1,0,,Y
42,"B, C",,W,,C,C,0,0,1,1,A,Y
43,B,,W,K,"A, C",A,,0,1,1,E,N
44,B,,W,,A,B,,0,1,1,B,N
45,A,0,W,,A,C,0,0,1,0,,Y
46,C,,T,M,C,A,,0,0,0,,Y
47,"B, C",,E,N,"A, B","A, B",,1,1,1,B,Y
48,A,,W,K,B,C,,0,1,1,D,Y
49,"A, B",,E,O,"A, B, C","A, B, C",,0,1,1,A,Y
50,A,,M,,C,C,0,0,1,1,B,N
51,A,0,M,K,"A, C",C,0,0,1,1,E,N
52,"A, B, C",,E,D,"A, C",C,,1,1,1,D,N
53,A,1,W,K,C,C,0,0,0,0,,Y
54,"B, C",0,M,,C,C,0,1,1,1,A,Y
55,D,0,W,,C,C,0,0,1,0,,Y
56,D,,M,M,A,C,,0,0,0,,N
57,B,1,W,M,"A, B","A, B",1,1,1,1,D,N
58,A,0,M,K,C,C,,0,1,1,A,Y
59,A,0,W,,C,C,0,1,1,1,D,Y
60,A,0,E,K,B,D,0,0,1,1,A,N
61,B,1,T,,C,C,,1,1,1,C,N
62,A,1,W,,"A, C","A, C",0,0,1,0,,Y
63,B,0,M,,C,C,,0,1,1,A,N
64,"A, B, C",0,W,K,"A, C",C,0,1,1,1,B,N
65,"A, C",0,W,,"A, C",C,0,0,0,1,E,Y
66,D,1,T,K,C,C,0,0,0,1,D,N
67,B,,M,,A,A,,1,1,1,D,N
68,"A, C",0,M,K,C,C,0,0,1,1,A,Y
69,"B, C",0,W,,C,C,0,0,1,1,C,N
70,A,0,W,O,C,C,0,0,1,1,C,N
71,"A, C",0,W,,C,C,0,0,1,0,,Y
72,A,1,E,H,"A, C",C,1,0,0,1,A,N
73,"A, B, C",0,M,S,C,C,,0,1,1,A,Y
74,"A, B, C",,E,,A,A,,1,0,1,A,Y
75,C,,E,,C,A,,0,0,1,A,Y
76,A,1,T,K,"A, B","A, B",,1,0,1,A,N
77,"B, C",,E,,A,A,,0,1,1,B,Y
78,"A, C",0,T,,C,C,0,1,0,1,C,Y
79,B,1,T,K,"A, C",C,1,0,1,0,,N
80,"B, C",0,W,,A,C,0,1,1,1,E,Y
81,"A, C",0,T,,C,C,0,0,0,0,,Y
82,B,1,M,K,C,C,0,1,1,0,,Y
83,"A, B, C",,E,K,"A, B, C","A, B, C",0,0,1,1,B,Y
84,"A, B, C",,T,D,"A, B, C","A, C",,1,1,1,C,N
85,A,0,W,,C,C,,0,1,1,A,N
86,B,0,M,K,C,C,,0,1,1,A,Y
87,A,0,T,,C,C,0,0,1,0,,N
88,"B, C",,E,S,"A, B, C",C,1,0,0,1,A,Y
89,A,0,W,,C,D,0,0,1,0,,Y
90,A,,W,,"A, B, C","A, C",,0,1,1,B,Y
91,C,1,T,S,C,"B, C",0,0,0,0,,N
92,"A, B",1,E,,"A, B, C","A, C",1,0,1,1,D,Y
93,A,1,W,,C,C,0,0,1,0,,Y
94,A,1,M,,C,C,0,0,0,0,,Y
95,B,0,W,,C,C,,1,1,1,A,N
96,"A, B, C",0,W,,C,D,,1,1,1,B,Y
97,"A, C",,W,K,C,C,,0,1,0,,N
98,A,0,W,,"A, B, C","A, B, C",0,0,1,1,A,Y
99,B,0,T,K,"A, B",B,0,0,1,1,C,Y
100,A,0,T,K,C,C,0,0,0,0,,Y
101,"C, D",,E,M,"A, B",C,0,1,0,1,C,Y
102,"A, B",1,E,,"A, B, C","A, B, C",1,1,1,1,D,Y
103,A,0,T,D,C,C,0,1,1,1,B,Y
104,"A, B",0,E,K,"B, C",C,0,0,1,1,A,Y
105,"A, B, C",1,E,,"A, B, C","A, B, C",0,0,1,1,B,Y
106,D,0,E,K,C,A,0,0,0,1,B,N
107,A,,E,,C,C,,1,1,1,A,N
108,"C, D",0,E,,"A, B, C","A, C",,1,1,1,D,Y
109,A,,W,,C,C,,0,1,1,B,N
110,C,,E,,"A, C","A, C",1,0,0,0,,Y
111,C,,W,,B,A,,0,1,1,B,Y
112,A,,W,,C,C,,0,0,0,,N
113,A,0,M,,C,C,0,0,0,0,,Y
114,B,0,W,,B,B,0,0,1,1,B,Y
115,"A, B, C",0,T,K,C,C,0,0,0,0,,Y
116,A,,M,O,C,C,,0,1,0,,Y
117,"B, C",1,W,K,C,C,1,0,1,0,,Y
118,A,0,T,K,C,C,,0,1,1,A,N
119,A,,E,O,C,C,0,0,0,0,,N
120,"A, B",,W,S,A,C,0,0,1,1,E,Y
121,A,0,E,,C,C,0,0,0,1,E,Y
122,"A, C",0,E,K,C,C,0,0,0,1,A,Y
123,A,0,T,K,"A, B, C","A, C",,0,0,0,,N
124,B,,W,M,"A, B",C,,1,1,1,A,Y
125,D,0,T,O,C,C,0,0,1,0,,Y
126,C,0,W,,C,C,0,0,0,0,,Y
127,A,,W,K,C,C,,0,0,1,D,Y
128,B,0,M,,"B, D",D,,1,1,1,D,Y
129,A,0,M,K,A,C,0,0,0,0,,Y
130,"B, C",0,T,M,A,B,0,1,1,1,E,Y
131,A,0,T,,C,C,0,1,1,1,E,N
132,A,0,T,,C,C,0,0,1,0,,Y
133,"A, B, C",0,E,M,"B, D",C,,0,1,1,A,N
134,A,0,T,K,C,C,0,0,0,0,,Y
135,A,,M,K,"A, B, C",B,,0,0,1,D,Y
136,A,,T,M,C,C,,0,1,0,,Y
137,A,0,T,K,"A, C",C,0,0,1,1,A,N
138,"A, C",,M,K,A,B,0,1,1,1,B,Y
139,"A, B",,W,,B,B,,1,1,1,A,Y
140,B,,W,M,C,C,,0,0,0,,Y
141,B,0,M,,C,C,0,0,1,1,A,Y
142,"A, B",0,T,,D,D,0,1,1,1,A,Y
143,B,,M,O,"A, C",C,,1,1,1,C,N
144,B,,W,K,"A, B",A,,0,1,1,C,N
145,"A, B",0,M,K,C,C,0,1,1,1,A,N
146,A,,M,,C,C,,0,1,1,A,Y
147,A,0,T,,"A, B, C","A, B, C",0,1,1,1,A,Y
148,A,0,T,K,C,C,0,1,1,0,,Y
149,A,0,T,K,A,A,0,0,1,1,C,Y
150,"B, C",0,M,K,C,C,,0,1,0,,Y
151,B,,T,,C,C,,0,0,0,,Y
152,A,,W,,C,C,,0,0,0,,Y
153,"A, C",,M,K,"A, C",B,,0,1,0,,Y
154,B,0,T,,C,C,0,0,1,1,B,Y
155,"A, C",0,T,K,C,C,0,0,1,1,A,Y
156,"A, B, C",0,T,,C,C,0,0,0,0,,Y
157,"B, C",0,W,,C,C,0,1,1,1,B,Y
158,C,,M,O,C,C,0,0,0,0,,Y
159,A,0,W,,"A, B, C",C,0,0,1,1,B,N
160,D,0,T,,C,C,0,0,0,0,,Y
161,B,,W,K,"A, B","B, C",0,0,1,1,A,Y
162,"B, C",,M,,C,C,,1,1,0,,N
163,"A, C",0,M,K,D,A,0,0,1,0,,Y
164,"A, B, C",1,M,K,C,C,,1,1,1,A,N
165,A,,M,D,C,C,,1,1,0,,Y
166,"A, B, C",,M,,C,C,,0,1,0,,N
167,A,,M,N,C,C,0,0,0,0,,Y
168,B,0,T,O,C,D,0,1,1,1,A,Y
169,"A, C",0,T,,C,C,0,0,1,1,A,Y
170,B,0,E,N,C,C,0,1,1,1,B,Y
171,B,0,T,M,C,C,0,1,1,0,,Y
172,"A, B, C",0,T,,C,C,0,1,1,0,,Y
173,A,,E,,C,C,,1,1,1,E,Y
174,B,,T,O,C,C,,0,0,0,,N
175,"A, B",0,E,K,C,C,0,0,1,0,,Y
176,"A, B, C",0,T,O,"B, C",C,0,1,1,1,B,N
177,A,0,T,,A,B,0,0,1,1,A,Y
178,B,0,M,K,"A, B, C",C,0,0,1,1,B,Y
179,B,,E,,"A, B, C",C,,1,1,0,,N
180,B,,E,M,C,C,,1,1,1,B,Y
181,"A, C",,M,,C,C,,0,1,0,,Y
182,A,,E,M,C,"B, C",,1,0,1,B,Y
183,A,0,T,K,C,C,0,1,1,1,B,Y
184,A,0,T,K,C,C,0,0,0,1,E,Y
185,"A, B, C",0,W,,"A, B",C,0,1,1,1,C,Y