"ds","y"
"2016-05-01",60500
"2016-06-01",60500
"2016-07-01",60500
"2016-08-01",73800
"2016-09-01",73800
"2016-10-01",73800
"2016-11-01",73800
"2016-12-01",73800
"2017-01-01",73800
"2017-02-01",73800
"2017-03-01",73800
"2017-04-01",73800
"2017-05-01",73800
"2017-06-01",73800
"2017-07-01",73800
"2017-08-01",73800
"2017-09-01",73800
"2017-10-01",73800
"2017-11-01",73800
"2017-12-01",73800
"2018-01-01",73800
"2018-02-01",73800
"2018-03-01",73800
"2018-04-01",73800
"2018-05-01",73800
"2018-06-01",73800
"2018-07-01",73800
"2018-08-01",73800
"2018-09-01",73800
"2018-10-01",73800
"2018-11-01",74300
"2018-12-01",106620
"2019-01-01",106560
"2019-02-01",106560
"2019-03-01",111405
"2019-04-01",89382
"2019-05-01",73800
"2019-06-01",68520
"2019-07-01",73800
