"ds","y"
"2016-05-01",565700
"2016-06-01",591700
"2016-07-01",571700
"2016-08-01",567700
"2016-09-01",641700
"2016-10-01",559700
"2016-11-01",587700
"2016-12-01",571700
"2017-01-01",563700
"2017-02-01",597700
"2017-03-01",627500
"2017-04-01",611700
"2017-05-01",617500
"2017-06-01",677500
"2017-07-01",671500
"2017-08-01",657300
"2017-09-01",701300
"2017-10-01",657300
"2017-11-01",673300
"2017-12-01",719700
"2018-01-01",669300
"2018-02-01",687300
"2018-03-01",657300
"2018-04-01",657300
"2018-05-01",657300
"2018-06-01",657300
"2018-07-01",667300
"2018-08-01",645700
"2018-09-01",557700
"2018-10-01",557700
"2018-11-01",580300
"2018-12-01",557700
"2019-01-01",557700
"2019-02-01",557700
"2019-03-01",557700
"2019-04-01",557700
"2019-05-01",557700
"2019-06-01",503960
"2019-07-01",557700
