申込月,人数
200904,5407
200905,9845
200906,7563
200907,5675
200908,6624
200909,9349
200910,5306
200911,5001
200912,3796
201001,4563
201002,7983
201003,9081
201004,6104
201005,8331
201006,8744
201007,7117
201008,7420
201009,8308
201010,5424
201011,6636
201012,5007
201101,6188
201102,5332
201103,9659
201104,5332
201105,12778
201106,7747
201107,5146
201108,9545
201109,7893
201110,4946
201111,5803
201112,4395
201201,5298
201202,6738
201203,8411
201204,5265
201205,6855
201206,7152
201207,4643
201208,6014
201209,5637
201210,6563
201211,5502
201212,3660
201301,3961
201302,5506
201303,5489
201304,6083
201305,7498
201306,6429
201307,5794
201308,4098
201309,5247
201310,5856
201311,5901
201312,3920
201401,3941
201402,4613
201403,6024
201404,5210
201405,7666
201406,7237
201407,5509
201408,4083
201409,5449
201410,5719
201411,5389
201412,5963
201501,5029
201502,5223
