recency,frequency,monetary
124829,0,0
124829,0,0
0,39,2821393
0,39,5871440
122,39,2985047
0,39,2892969
0,39,23835960
124829,0,0
0,39,4702257
668,20,5212000
124829,6,144000
0,39,18596675
124829,4,127800
303,31,5722100
0,39,868248
456,24,1346400
972,10,145800
30,39,10750260
0,39,3763640
546,23,2012400
273,39,3488567
942,13,1304948
0,39,756820
456,26,5252000
0,39,4022640
124829,0,0
0,39,7501800
91,39,3481513
972,9,450900
0,39,35458420
91,39,1952369
124829,7,400409
668,20,460800
0,39,264527844
30,39,1717420
0,39,2118674
91,39,10862260
0,39,2937440
91,39,1951739
1125,11,2589300
0,39,4998782
91,39,5010360
1125,4,210400
1125,3,878280
0,39,2033940
91,39,2580180
30,39,6335064
30,39,4727276
91,39,4970834
972,8,931400
1125,5,138000
1125,6,30000
30,39,1736920
91,39,11378874
30,39,9440500
1125,7,290900
124829,0,0
30,39,3810810
30,39,7775394
546,22,413040
456,27,5202120
0,39,21064735
124829,8,2046926
1125,10,3113421
0,39,14537436
1125,4,499617
668,19,1814205
91,39,5526680
124829,1,20700
303,36,2610600
30,39,1658920
456,28,6114960
91,39,2197012
0,39,12231373
30,39,5612080
124829,0,0
0,39,4544809
30,39,9690358
668,20,4200400
30,39,6675640
30,32,2250350
0,39,4672068
0,39,3728888
668,20,1202520
487,23,2762358
0,39,5822730
487,23,3753130
0,39,4702073
0,39,3368066
0,39,4896825
972,15,3398820
30,39,2422789
0,39,4109940
0,39,3460140
91,37,1551400
30,39,9950000
334,29,1059438
91,39,4086080
30,39,1658920
30,39,3375420
30,39,1675920
0,39,3810140
91,39,5052076
0,39,15646596
30,39,4672200
972,14,1861800
1095,10,3074120
91,39,2333218
91,36,1176400
30,39,2883072
0,39,4603500
577,22,242428
91,39,4134840
0,39,4686534
30,39,3290340
91,39,2047920
30,39,5564920
124829,0,0
456,27,4403120
30,23,137683280
91,39,7377767
456,15,600000
91,39,3270301
273,32,30280
30,39,4959138
30,39,5675420
0,39,17675520
30,39,4415040
0,39,964720
0,39,3649154
30,39,1605900
972,10,220000
0,39,6595300
972,11,365460
30,39,1315400
0,39,3401640
61,39,2059920
972,11,251600
30,39,2061120
0,39,1212666
0,39,12257238
0,39,3602140
0,39,37381
124829,0,0
91,34,161336
487,24,397567
30,35,1597984
91,39,3451840
0,38,1898840
30,39,11700000
456,12,480000
668,5,170000
607,4,290000
456,9,992000
456,9,270000
456,17,510000
668,3,350000
91,37,2509125
30,5,318581
0,37,16445176
456,12,530000
61,34,2042979
30,37,1610720
30,36,5303120
0,37,12310128
91,37,420720
30,36,5926440
124829,0,0
0,37,902320
546,11,264000
668,4,140000
668,4,120000
456,12,360000
546,7,460000
456,11,330000
546,11,355000
668,3,300000
668,5,200000
456,9,270000
456,12,370000
546,11,346500
456,9,270000
668,3,180000
0,36,4401649
456,24,4819761
0,35,1232020
487,23,8782719
30,35,2440520
972,6,284280
0,35,199262
0,34,1926560
30,35,10297999
124829,1,45000
30,35,3479781
61,35,1773516
0,34,199230
30,35,3069229
546,19,375218
0,34,532492
487,13,130000
972,9,385180
30,34,14185160
91,19,19009593
546,12,360000
303,30,7464271
30,34,3141920
91,34,1838300
0,35,598022
0,33,16170223
0,34,2176486
0,34,246504
91,30,4110220
487,14,2851026
0,30,6181057
334,23,1123280
30,34,725400
0,32,4321188
91,32,1950481
456,17,595000
0,31,1330893
0,33,1290428
668,15,827858
546,18,1019839
0,31,1216950
91,32,2402800
30,33,4759720
0,32,1401460
30,32,1411675
0,32,218895
91,32,7309398
30,32,4963680
30,32,505120
273,24,63695
456,21,177892
0,32,2545620
303,24,428118
124829,0,0
30,31,1666836
30,32,3339620
0,30,14592035
30,32,4725000
30,29,2168520
456,12,360000
456,12,360000
668,2,60000
456,12,360000
456,12,360000
456,9,1710000
456,12,360000
487,8,240000
456,12,360000
456,12,240000
456,17,1190000
30,30,2374920
0,31,4718080
30,30,8382175
0,30,3088680
150,30,4642471
91,30,3981560
0,30,274160
30,30,2444972
124829,2,20000
0,30,3444580
122,29,1484003
124829,0,0
0,31,742520
91,31,2486736
91,30,619034
0,29,3175152
124829,2,24520
61,29,1475899
30,29,5812148
91,29,2926864
0,30,2777800
30,25,1950000
668,8,240000
0,29,175946
487,12,758400
30,29,1134688
668,9,3364000
0,29,377522
30,29,3598320
30,29,4001320
91,29,1483684
487,11,330000
30,29,10563814
30,29,494636
30,28,7488680
91,28,4644160
0,28,752161
91,27,5580080
30,27,3947080
91,27,1522120
124829,0,0
30,28,5136000
91,27,783983
30,26,448292
30,27,2516470
124829,0,0
124829,4,273400
61,23,262926
124829,0,0
30,26,1441120
0,26,8239500
546,10,450000
91,26,1383120
668,7,210000
0,26,245408
303,26,2405904
0,27,922820
124829,3,16800
30,23,1281484
30,24,1418242
91,25,1311520
30,27,1128688
0,25,866520
0,25,2621221
124829,0,0
0,23,3512667
668,6,210000
546,7,236000
303,19,6211466
0,26,222060
124829,0,0
303,20,94625
30,23,476526
0,25,5939168
546,6,60000
30,22,1957720
487,8,511800
30,23,617580
124829,0,0
30,22,3100000
0,12,833000
91,22,2674600
91,23,3514702
91,23,1577970
0,23,1211554
124829,2,61964
30,25,2250000
91,23,1185572
0,19,756000
0,23,6553957
124829,0,0
0,18,899365
242,18,468349
456,10,298380
456,7,393800
0,21,702419
30,22,1683823
61,21,3158449
30,22,891408
30,22,1533920
0,23,2222924
0,17,825000
0,21,313500
124829,3,373500
0,21,1149500
0,22,208526
91,21,1775614
30,21,2418030
0,22,1559740
0,21,1931194
30,21,1808860
124829,0,0
30,21,3150000
91,21,1215420
303,22,3243663
30,22,1623240
91,20,141339
91,22,1543760
0,20,9518080
0,20,298500
91,21,1854264
0,16,477000
30,20,4471377
91,19,1218184
0,20,597000
0,20,222914
0,19,718886
303,9,783000
0,2,14889
487,7,837000
91,21,1059320
122,20,1517148
91,20,106686
30,19,2236108
0,19,283500
91,20,1817788
91,16,777020
30,19,4812100
91,19,2724602
91,20,904120
30,19,906542
124829,0,0
91,19,1433970
0,19,898021
91,20,2226498
0,19,1139964
303,17,2485600
0,19,669779
91,19,994260
546,3,42600
91,19,1308220
0,19,90720
0,18,429600
30,19,5086240
61,17,230563
0,16,159000
0,19,453600
487,5,198867
30,18,2165920
91,20,117571
30,18,2185440
124829,0,0
0,15,458700
0,17,507000
91,17,826220
0,17,1217022
91,18,902440
0,16,1032738
0,17,830952
30,17,1306500
0,17,2711681
91,15,800520
0,15,447000
30,17,1154334
303,9,203226
91,15,873620
30,16,3183948
0,17,3202856
303,12,240000
0,12,408105
0,16,477000
30,16,2114320
0,15,181539
30,15,4297020
0,15,572526
0,14,516725
303,5,38000
30,15,824110
91,16,108320
0,14,69500
124829,0,0
303,12,955200
0,16,1681740
0,16,3635745
0,12,476000
0,15,207907
91,14,1857842
0,15,1305917
124829,0,0
30,15,696520
273,13,21916
30,15,2310282
0,14,208500
91,13,976126
122,10,19494
124829,3,49591
0,14,221500
334,6,595800
124829,1,7000
30,14,873920
61,14,430658
91,15,515298
0,12,593622
30,14,753020
124829,0,0
0,13,64500
0,13,358620
0,13,516000
0,14,1654920
30,13,4940000
30,14,1741277
0,13,346135
0,12,416500
30,13,1953388
0,12,238027
122,11,1833095
30,12,248600
30,12,330440
0,13,356820
0,12,416500
0,12,59500
0,12,416500
0,12,118000
303,5,150000
0,12,208488
30,11,1290120
0,12,164151
0,12,139000
0,12,863500
0,12,119000
0,12,119414
0,12,59500
0,12,490028
0,12,427310
0,12,583031
0,10,49500
0,12,476000
30,11,795120
0,12,119000
30,11,1242040
124829,1,4320
0,11,66596
0,11,270320
61,11,223191
30,10,1172520
91,10,77480
0,11,1335380
91,11,2975268
124829,0,0
124829,3,8010
124829,0,0
124829,0,0
30,10,383110
0,9,161106
30,9,474266
212,5,407100
0,9,308788
124829,0,0
91,13,1360000
91,10,325346
30,9,312010
0,9,323352
0,9,1513000
0,10,120185
0,8,832649
0,9,309720
30,9,985341
0,8,39500
0,9,692420
0,8,73122
91,8,73802
30,9,491426
124829,0,0
0,9,924284
0,6,29500
91,7,383289
124829,0,0
0,9,8385
124829,1,4500
0,7,787260
124829,0,0
61,8,2047402
0,9,734660
30,8,640000
30,7,653620
91,8,656248
0,7,59267
124829,1,2000
30,8,879920
91,7,172358
30,7,1905047
0,3,609000
0,7,70323
0,6,567727
0,6,108764
30,7,171134
30,7,1560340
0,6,75520
91,5,60766
124829,0,0
124829,3,36600
0,6,307708
0,5,27781
30,5,211800
30,6,279598
0,5,490000
30,7,1050000
30,4,205088
0,4,468000
0,6,1123986
30,5,587000
30,6,300000
0,6,177377
0,6,1473839
30,6,771820
91,5,457540
124829,5,560497
0,5,24500
0,4,1630436
0,5,478240
61,3,1116000
30,4,45494
0,4,19500
30,4,479323
124829,2,1243500
124829,0,0
0,4,78000
61,4,21291
30,5,36067
30,4,238668
30,4,254032
0,5,31139
61,4,153240
124829,1,4207
0,3,87000
30,4,400000
30,4,223148
30,4,299920
124829,1,47990
0,5,52120
124829,3,900320
30,4,600000
0,3,93004
0,4,434320
124829,4,55600
0,4,465360
30,4,318140
124829,2,34794
0,4,26520
0,2,63175
124829,2,246490
124829,0,0
0,2,9500
124829,0,0
0,3,30289
0,3,217500
124829,0,0
124829,1,40000
0,2,9500
0,2,9500
124829,0,0
124829,1,29800
124829,2,60000
124829,1,5000
124829,0,0
124829,3,14085
124829,2,91490
124829,2,10000
124829,0,0
124829,0,0
124829,2,19000
124829,1,10034
124829,1,20000
124829,0,0
124829,1,37800
124829,1,36000
0,2,105081
124829,0,0
124829,2,95000
124829,0,0
124829,0,0
124829,1,67420
124829,0,0
124829,0,0
124829,1,500
124829,1,83
124829,0,0