"","ANSYS利用の立場: 利用する立場","ANSYS利用の立場: 利用及び評価・検証をする立場","ANSYS利用の立場: 管理・統括をする立場","ANSYS利用の立場: 利用及び検討には関与しない(契約・手続きのみ)","導入時の期待を実現できている","ANSYS利用頻度(毎日:1, それ以外:0)","ANSYS利用頻度(1週間に一度以上:1, それ以外:0)","ANSYS利用頻度(1ヶ月に1度以上:1, それ以外:0)","今後行いたい解析がある","サポートに肯定的","担当営業に肯定的","ANSYSを他社や同僚・友人におすすめしようと思うほどご満足いただけていましたでしょうか？","エンジニアリングサービスへの関心","教育プログラムへの関心","従業員規模：5百人未満","従業員規模：5百人以上","従業員規模：1～5千人","従業員規模：5～10千人","従業員規模：1","従業員規模：不明","売上規模：5億円未満","売上規模：1","売上規模：10億円以上","売上規模：50億円以上","売上規模：100億円以上","売上規模：不明","分類1: ANSYS Mechanical","分類1: ANSYS Professional","分類1: ANSYS SpaceClaim","分類1: ANSYS Optimetrics","分類1: ANSYS Geometry Interface","分類1: ANSYS Structural","分類1: ANSYS Multiphysics","分類1: ANSYS CFD","分類1: ANSYS LS-DYNA","分類1: ANSYS Maxwell","分類1: HPC","分類1: ANSYS Discovery","分類1: ANSYS DesignSpace","分類1: ANSYS HFSS","分類1: ANSYS EnSight","分類2: 構造解析","分類2: マルチフィジックス","分類2: その他","分類2: 熱流体解析","分類2: 電磁界解析","分類2: HPC","分類2: 設計者向け製品(構造、熱流体)","主要製品/オプション: 主要製品","主要製品/オプション: 主要製品（旧製品）","主要製品/オプション: 機能オプション","主要製品/オプション: HPCオプション","今後行いたい解析: 構造解析","今後行いたい解析: 熱流体解析","今後行いたい解析: 電磁界解析","今後行いたい解析: マルチフィジックス","今後行いたい解析:音響解析","今後行いたい解析:WAON","今後行いたい解析:ANSYS Motion","今後行いたい解析: その他"
"ANSYS利用の立場: 利用する立場",0,0,0.17186,5e-05,0.97468,0.38217,0.71864,0.58737,0.97676,0.34263,0.47111,0.34713,0.21824,0.77459,0.29746,0.33329,0.3069,0.76331,0.4155,0.19501,0.10222,0.76331,0.02492,0.17003,0.60145,0.19501,0.21688,0.93294,0.20905,0.74657,0.68153,0.29221,0.08004,0.13457,0.20905,0.25637,0.42348,0.64585,0.77543,0.25637,0.20905,0.03805,0.02149,0.67838,0.13457,0.10653,0.42348,0.64585,0.50366,0.88417,0.84122,0.42348,0.39775,0.57528,0.64665,0.47009,0.16334,0.42348,0.42348,0.37906
"ANSYS利用の立場: 利用及び評価・検証をする立場",0,0,0.03725,0.00244,0.96859,0.16087,0.51043,0.38977,0.00251,0.79293,0.78279,0.01799,0.00028,0.00011,0.50143,0.96436,0.57677,0.89642,0.35932,0.74947,0.45626,0.11825,0.28445,0.76311,0.66598,0.74947,0.75222,0.21287,0.35001,0.92021,0.80077,0.4173,0.89979,0.24771,0.282,0.92021,0.35001,0.24771,0.86075,0.92021,0.35001,0.18242,0.57915,0.81839,0.24771,0.88673,0.35001,0.24771,0.53844,0.39285,0.64506,0.35001,0.05185,0.1452,0.58055,0.57553,0.64515,0.35001,0.282,0.76814
"ANSYS利用の立場: 管理・統括をする立場",0.17186,0.03725,0,0.83709,0.33067,0.12923,0.40455,0.3918,0.76799,0.38808,0.39057,0.75265,0.2035,0.94871,0.14802,0.6879,0.59616,0.3073,0.47222,0.81713,0.33927,0.62729,0.39228,0.0685,0.0543,0.81713,0.03334,0.62384,0.15282,0.60655,0.21404,0.48182,0.45294,0.73166,0.48188,0.60655,0.48188,0.07067,0.98477,0.60655,0.15282,0.05676,0.58784,0.8781,0.73166,0.46396,0.48188,0.07067,0.19052,0.82911,0.7431,0.48188,0.21937,0.20727,0.80518,0.7431,0.98932,0.48188,0.48188,0.73473
"ANSYS利用の立場: 利用及び検討には関与しない(契約・手続きのみ)",5e-05,0.00244,0.83709,0,0.86943,0.23486,0.98598,0.92258,0.29234,0.26833,0.36066,0.35297,0.79798,0.10263,0.7829,0.19277,0.05163,0.70436,0.78933,0.79669,0.17984,0.70436,0.50379,0.07525,0.50967,0.79669,0.27769,0.01222,0.81057,0.73393,0.64276,0.46219,0.02217,0.62885,0.81057,0.73393,0.81057,0.62885,0.55166,0.73393,0.81057,0.7809,0.15663,0.87578,0.62885,0.62885,0.81057,0.62885,0.16996,0.08011,0.92729,0.81057,0.08139,0.73826,0.57726,0.22368,0.67636,0.81057,0.81057,0.58789
"導入時の期待を実現できている",0.97468,0.96859,0.33067,0.86943,0,0.26131,0.06661,0.18266,0.14624,0.20184,0.07279,0,0.68495,0.16487,0.29065,0.43947,0.53322,0.37501,NA,0.35978,0.06173,0.42463,0.20341,0.15507,0.48518,0.35978,0.39023,0.83044,0.655,0.655,0.30909,0.26301,0.43492,0.655,0.655,0.655,0.02397,0.19841,0.25472,NA,NA,0.64609,0.83044,0.22453,0.655,0.655,0.02397,0.19841,0.26649,0.68531,0.22453,0.02397,0.36725,0.56113,0.26301,0.40336,0.43492,0.655,NA,0.36512
"ANSYS利用頻度(毎日:1, それ以外:0)",0.38217,0.16087,0.12923,0.23486,0.26131,0,0,0,0.01798,0.81234,0.18201,0.01766,0.33523,0.54087,0.81206,0.09791,0.02457,0.34392,0.13028,0.32631,0.45895,0.34392,0.0954,0.035,0.42036,0.32631,0.43702,0.96368,0.56971,0.01214,0.52258,0.88021,0.51838,0.01693,0.07696,0.3948,0.07696,0.9746,0.158,0.42015,0.56971,0.22932,0.39623,0.94745,0.01693,0.9746,0.07696,0.9746,0.74443,0.82223,0.93611,0.07696,0.07685,0.01368,0.62441,0.50071,0.32215,0.56971,0.56971,0.19872
"ANSYS利用頻度(1週間に一度以上:1, それ以外:0)",0.71864,0.51043,0.40455,0.98598,0.06661,0,0,0,0.01554,0.16302,0.62063,0.01502,0.68657,0.65398,0.40106,0.04193,0.22633,0.76331,0.4155,0.45497,0.87115,0.76331,0.59571,0.04525,0.60145,0.45497,0.41499,0.47939,0.31861,0.15282,0.2401,0.74508,0.74508,0.30681,0.31338,0.99387,0.31338,0.99128,0.09962,0.15729,0.31861,0.02294,0.4066,0.306,0.30681,0.31727,0.31338,0.99128,0.78237,0.09813,0.2116,0.31338,0.32925,0.01663,0.74186,0.4592,0.08241,0.31861,0.31338,0.64147
"ANSYS利用頻度(1ヶ月に1度以上:1, それ以外:0)",0.58737,0.38977,0.3918,0.92258,0.18266,0,0,0,0.36229,0.83515,0.97342,0.25923,0.34253,0.04986,0.29259,0.03759,0.59097,0.34299,0.59046,0.88563,0.18216,0.4447,0.73325,0.07681,0.61073,0.88563,0.27304,0.17207,0.11355,0.36759,0.71051,0.74996,0.28256,0.20011,0.52519,0.5019,0.52519,0.87038,0.03626,0.5019,0.52519,0.50311,0.67548,0.80971,0.20011,0.33964,0.52519,0.87038,0.10983,0.00379,0.94178,0.52519,0.51716,0.30373,0.91711,0.23057,0.00585,0.11355,0.52519,0.66455
"今後行いたい解析がある",0.97676,0.00251,0.76799,0.29234,0.14624,0.01798,0.01554,0.36229,0,0.58784,0.29219,0.90122,0.00106,0.00385,0.57453,0.63854,0.28497,0.54776,0.13028,0.66049,0.45895,0.34392,0.28954,0.49959,0.68103,0.66049,0.83799,0.85981,0.16798,0.64515,0.59432,0.1289,0.52419,0.68339,0.46585,0.30108,0.46585,0.68339,0.09315,0.64515,0.16798,0.79551,0.64615,0.17529,0.68339,0.68339,0.46585,0.68339,0.36204,0.72486,0.09516,0.46585,0,9e-05,0.01288,0.00165,0.20408,0.46585,0.46585,0.09922
"サポートに肯定的",0.34263,0.79293,0.38808,0.26833,0.20184,0.81234,0.16302,0.83515,0.58784,0,0.0013,0.24157,0.62412,0.12651,0.63172,0.61796,0.24274,0.7912,0.7912,0.61796,0.39415,NA,0.64102,0.02212,0.30118,0.61796,0.47048,0.64676,NA,0.64676,0.41602,0.37666,0.39612,0.64676,0.74735,0.74735,0.74735,0.64676,0.74735,0.74735,NA,0.92836,0.7437,0.34153,0.64676,0.64676,0.74735,0.64676,0.81234,0.64128,0.34153,0.74735,0.1406,0.64128,0.37666,0.90086,NA,NA,0.74735,0.51186
"担当営業に肯定的",0.47111,0.78279,0.39057,0.36066,0.07279,0.18201,0.62063,0.97342,0.29219,0.0013,0,0.21765,0.47602,0.24717,0.17341,0.39596,0.97236,NA,NA,0.31287,0.21921,0.01921,0.44125,0.30984,0.55525,0.31287,0.71431,0.36066,NA,0.6552,0.01622,0.82215,0.4322,0.52455,0.6552,NA,NA,0.6552,0.6552,0.6552,NA,0.45136,0.36066,0.06152,0.52455,0.6552,NA,0.6552,0.35492,0.34415,0.06152,NA,0.16884,0.34415,0.36066,0.485,NA,NA,0.6552,NA
"ANSYSを他社や同僚・友人におすすめしようと思うほどご満足いただけていましたでしょうか？",0.34713,0.01799,0.75265,0.35297,0,0.01766,0.01502,0.25923,0.90122,0.24157,0.21765,0,0.56016,0.89337,0.77567,0.47543,0.61714,0.6859,NA,0.86323,0.76052,NA,0.50848,0.79671,0.27886,0.86323,0.7765,0.42567,0.75073,NA,0.38725,0.38725,0.57866,0.65175,NA,0.75073,0.00149,0.13863,0.25954,NA,0.75073,0.23611,0.38512,0.32215,0.65175,0.75073,0.00149,0.13863,0.7843,0.40702,0.29427,0.00149,0.65508,0.22468,0.42567,0.10406,0.13863,0.75073,NA,0.46922
"エンジニアリングサービスへの関心",0.21824,0.00028,0.2035,0.79798,0.68495,0.33523,0.68657,0.34253,0.00106,0.62412,0.47602,0.56016,0,2e-05,0.91297,0.09558,0.69455,0.3073,0.16072,0.06953,0.28329,0.62729,0.39228,0.78643,0.0551,0.06953,0.23975,0.49979,0.18329,0.05916,0.68457,0.3705,0.85363,0.10276,0.18329,0.05916,0.44991,0.12761,0.31111,0.05916,0.44991,0.00443,0.15018,0.23005,0.10276,0.00729,0.44991,0.12761,0.60042,0.51281,0.32903,0.44991,0.32264,0.07746,0.51096,0.13217,0.02048,0.18329,0.18329,0.44436
"教育プログラムへの関心",0.77459,0.00011,0.94871,0.10263,0.16487,0.54087,0.65398,0.04986,0.00385,0.12651,0.24717,0.89337,2e-05,0,0.33979,0.83601,0.84091,0.02254,0.53017,0.71321,0.26227,0.37267,0.11625,0.5519,0.81492,0.71321,0.58992,0.52039,0.53618,0.38037,0.38219,0.71293,0.00712,0.90751,0.53618,0.38037,0.10409,0.31008,0.02934,0.38037,0.10409,0.57087,0.08419,0.40891,0.90751,0.21225,0.10409,0.31008,0.49479,0.02457,0.6958,0.10409,0.0744,0.01856,0.47257,0.45438,0.82173,0.53618,0.53618,0.52823
"従業員規模：5百人未満",0.29746,0.50143,0.14802,0.7829,0.29065,0.81206,0.40106,0.29259,0.57453,0.63172,0.17341,0.77567,0.91297,0.33979,0,3e-05,0,0.22352,0.39138,5e-05,0,0.09478,0.00324,0.00011,0,5e-05,0.06856,0.40785,0.23942,0.22352,0.12404,0.82063,0.08255,0.22352,0.39138,0.09478,0.39138,0.17602,0.08002,0.39138,NA,0.91297,0.01999,0.13863,0.22352,0.38383,0.39138,0.17602,0.06635,0.20269,0.13863,0.39138,0.47053,0.93022,0.30942,0.02476,0.82063,NA,NA,0.7464
"従業員規模：5百人以上",0.33329,0.96436,0.6879,0.19277,0.43947,0.09791,0.04193,0.03759,0.63854,0.61796,0.39596,0.47543,0.09558,0.83601,3e-05,0,0.00871,0.5257,0.65499,0.03463,0.02489,0.5257,0.26353,0.14177,0,0.03463,0.6492,0.37685,0.65499,0.5257,0.37685,0.19878,0.64275,0.5257,0.02404,0.5257,0.65499,0.36543,0.831,0.65499,NA,0.25032,0.86925,0.75768,0.5257,0.4351,0.65499,0.36543,0.5534,0.26428,0.75768,0.65499,0.28119,0.12296,0.50446,0.8101,0.5257,NA,NA,0.36543
"従業員規模：1～5千人",0.3069,0.57677,0.59616,0.05163,0.53322,0.02457,0.22633,0.59097,0.28497,0.24274,0.97236,0.61714,0.69455,0.84091,0,0.00871,0,0.4447,0.59046,0.01095,0.0069,0.4447,0.17811,0.07681,0,0.01095,0.80959,0.59917,0.59046,0.00779,0.0226,0.4447,0.17622,0.00779,0.59046,0.4447,0.59046,0.27569,0.22097,0.59046,NA,0.32156,0.68206,0.0028,0.00779,0.34721,0.59046,0.27569,0.90336,0.38985,0.0028,0.59046,0.78604,0.89671,0.85024,0.04962,0.34299,NA,NA,0.89561
"従業員規模：5～10千人",0.76331,0.89642,0.3073,0.70436,0.37501,0.34392,0.76331,0.34299,0.54776,0.7912,NA,0.6859,0.3073,0.02254,0.22352,0.5257,0.4447,0,0.89642,0.53824,0.51344,0.85333,0.74463,0.66863,0.16419,0.53824,0.38448,0.72381,0.89642,0.85333,0.72381,0.85333,2e-04,0.85333,0.89642,0.85333,0.89642,0.79203,0.76718,0.89642,NA,0.62729,0.00692,0.66863,0.85333,0.82013,0.89642,0.79203,0.54776,0.19878,0.66863,0.89642,0.28968,0.56424,0.70436,0.08666,0.85333,NA,NA,0.79203
"従業員規模：1",0.4155,0.35932,0.47222,0.78933,NA,0.13028,0.4155,0.59046,0.13028,0.7912,NA,NA,0.16072,0.53017,0.39138,0.65499,0.59046,0.89642,0,0.66473,0.6454,0.89642,0.81858,0.76311,0.3273,0.66473,0.07369,0.80349,0.92696,0.89642,0.80349,0.89642,0.8527,0.89642,0.92696,0.89642,0.92696,0.8527,0.83486,0.92696,NA,0.47222,5e-05,0.76311,0.89642,0.87279,0.92696,0.8527,0.13028,0.65499,0.76311,0.92696,0.45593,0.68475,0.78933,0.71644,0.89642,NA,NA,0.8527
"従業員規模：不明",0.19501,0.74947,0.81713,0.79669,0.35978,0.32631,0.45497,0.88563,0.66049,0.61796,0.31287,0.86323,0.06953,0.71321,5e-05,0.03463,0.01095,0.53824,0.66473,0,0.02959,0.53824,0.27818,0.15416,0,0,0.00925,0.23942,0.66473,0.53824,0.23942,0.53824,0.38004,0.53824,0.66473,0.53824,0.01999,0.60323,0.3243,0.01999,NA,0.76671,0.33497,0.15416,0.53824,0.39535,0.01999,0.60323,0.00488,0.03463,0.15416,0.01999,0.51473,0.22998,0.45449,0.53117,0.53824,NA,NA,0.60323
"売上規模：5億円未満",0.10222,0.45626,0.33927,0.17984,0.06173,0.45895,0.87115,0.18216,0.45895,0.39415,0.21921,0.76052,0.28329,0.26227,0,0.02489,0.0069,0.51344,0.6454,0.02959,0,0.51344,0.24956,0.13028,0,0.02959,0.56131,0.41953,0.6454,0.51344,0.21163,0.51344,0.35131,0.51344,0.6454,0.51344,0.6454,0.07958,0.1721,0.6454,NA,0.65382,0.21163,0.13028,0.51344,0.42154,0.6454,0.07958,0.82619,0.73249,0.13028,0.6454,0.78761,0.97268,0.55466,0.06825,0.219,NA,NA,0.07958
"売上規模：1",0.76331,0.11825,0.62729,0.70436,0.42463,0.34392,0.76331,0.4447,0.34392,NA,0.01921,NA,0.62729,0.37267,0.09478,0.5257,0.4447,0.85333,0.89642,0.53824,0.51344,0,0.74463,0.66863,0.14378,0.53824,0.42334,0.72381,0.89642,0.85333,0.72381,0.85333,0.79203,0.85333,0.89642,0.85333,0.89642,0.79203,0.76718,0.89642,NA,0.3073,0.72381,0.66863,0.85333,0.82013,0.89642,0.79203,0.34392,0.5257,0.66863,0.89642,0.05478,0.56424,0.70436,0.60597,0.85333,NA,NA,0.79203
"売上規模：10億円以上",0.02492,0.28445,0.39228,0.50379,0.20341,0.0954,0.59571,0.73325,0.28954,0.64102,0.44125,0.50848,0.39228,0.11625,0.00324,0.26353,0.17811,0.74463,0.81858,0.27818,0.24956,0.74463,0,0.45076,0.01,0.27818,0.15834,0.53354,1e-05,0.74463,0.53354,0.74463,0.64224,0.74463,0.81858,0.74463,0.81858,0.64224,0.11358,0.81858,NA,0.36072,0.53354,0.44325,0.74463,0.6887,0.81858,0.64224,0.0954,0.99257,0.44325,0.81858,0.32187,0.84992,0.50379,0.68892,0.74463,NA,NA,0.64224
"売上規模：50億円以上",0.17003,0.76311,0.0685,0.07525,0.15507,0.035,0.04525,0.07681,0.49959,0.02212,0.30984,0.79671,0.78643,0.5519,0.00011,0.14177,0.07681,0.66863,0.76311,0.15416,0.13028,0.66863,0.45076,0,0.00071,0.15416,0.64077,0.41328,0.76311,0.66863,0.41328,0.03065,0.54155,0.66863,0.76311,0.66863,0.76311,0.54155,0.49305,0.76311,NA,0.66967,0.41328,0.32169,0.66863,0.59858,0.76311,0.54155,0.96693,0.56169,0.32169,0.76311,0.75819,0.57183,0.37968,0.23237,0.66863,NA,NA,0.54155
"売上規模：100億円以上",0.60145,0.66598,0.0543,0.50967,0.48518,0.42036,0.60145,0.61073,0.68103,0.30118,0.55525,0.27886,0.0551,0.81492,0,0,0,0.16419,0.3273,0,0,0.14378,0.01,0.00071,0,0,0.42822,0.27092,0.30331,0.16419,0.00784,0.97179,0.04725,0.16419,0.3273,0.16419,0.30331,0.28565,0.60758,0.30331,NA,0.99747,0.27092,0.01046,0.16419,0.58828,0.30331,0.28565,0.43942,0.06618,0.01046,0.30331,0.2491,0.49982,0.94213,0.10803,0.97179,NA,NA,0.28565
"売上規模：不明",0.19501,0.74947,0.81713,0.79669,0.35978,0.32631,0.45497,0.88563,0.66049,0.61796,0.31287,0.86323,0.06953,0.71321,5e-05,0.03463,0.01095,0.53824,0.66473,0,0.02959,0.53824,0.27818,0.15416,0,0,0.00925,0.23942,0.66473,0.53824,0.23942,0.53824,0.38004,0.53824,0.66473,0.53824,0.01999,0.60323,0.3243,0.01999,NA,0.76671,0.33497,0.15416,0.53824,0.39535,0.01999,0.60323,0.00488,0.03463,0.15416,0.01999,0.51473,0.22998,0.45449,0.53117,0.53824,NA,NA,0.60323
"分類1: ANSYS Mechanical",0.21688,0.75222,0.03334,0.27769,0.39023,0.43702,0.41499,0.27304,0.83799,0.47048,0.71431,0.7765,0.23975,0.58992,0.06856,0.6492,0.80959,0.38448,0.07369,0.00925,0.56131,0.42334,0.15834,0.64077,0.42822,0.00925,0,0.10113,0.56971,0.42015,0.04226,0.0812,0.0812,0.25165,0.56971,0.42015,0.56971,0.25165,0.158,0.42015,0.56971,0,0.1399,0.01766,0.25165,0.25165,0.56971,0.25165,0,0.00101,0.01417,0.56971,0.98457,0.29688,0.33723,0.26862,0.32215,0.56971,0.56971,0.40753
"分類1: ANSYS Professional",0.93294,0.21287,0.62384,0.01222,0.83044,0.96368,0.47939,0.17207,0.85981,0.64676,0.36066,0.42567,0.49979,0.52039,0.40785,0.37685,0.59917,0.72381,0.80349,0.23942,0.41953,0.72381,0.53354,0.41328,0.27092,0.23942,0.10113,0,0.83119,0.76243,0.44631,0.51318,0.51318,0.66729,0.83119,0.76243,0.83119,0.66729,0.59652,0.76243,0.83119,6e-05,0.39037,0.37361,0.66729,0.66729,0.83119,0.66729,0.06338,0,0.35765,0.83119,0.51931,0.33127,0.46719,0.74033,0.71045,0.83119,0.83119,0.62985
"分類1: ANSYS SpaceClaim",0.20905,0.35001,0.15282,0.81057,0.655,0.56971,0.31861,0.11355,0.16798,NA,NA,0.75073,0.18329,0.53618,0.23942,0.65499,0.59046,0.89642,0.92696,0.66473,0.6454,0.89642,1e-05,0.76311,0.30331,0.66473,0.56971,0.83119,0,0.91651,0.79171,0.82062,0.82062,0.8815,0.94107,0.91651,0.94107,0.8815,0.85434,0.91651,0.94107,0.47118,0.76582,0.00112,0.8815,0.8815,0.94107,0.8815,0.51972,0.62813,0.00162,0.94107,0.45521,0.69184,0.80095,0.74975,0.89757,0.94107,0.94107,0.86728
"分類1: ANSYS Optimetrics",0.74657,0.92021,0.60655,0.73393,0.655,0.01214,0.15282,0.36759,0.64515,0.64676,0.6552,NA,0.05916,0.38037,0.22352,0.5257,0.00779,0.85333,0.89642,0.53824,0.51344,0.85333,0.74463,0.66863,0.16419,0.53824,0.42015,0.76243,0.91651,0,0.70804,0.7478,0.7478,0.83259,0.91651,0.88183,0.91651,0.83259,0.79461,0.88183,0.91651,0.30688,0.67275,0,0.83259,0.83259,0.91651,0.83259,0.36128,0.49218,1e-05,0.91651,0.6707,0.57407,0.7207,0.65104,0.85515,0.91651,0.91651,0.81267
"分類1: ANSYS Geometry Interface",0.68153,0.80077,0.21404,0.64276,0.30909,0.52258,0.2401,0.71051,0.59432,0.41602,0.01622,0.38725,0.68457,0.38219,0.12404,0.37685,0.0226,0.72381,0.80349,0.23942,0.21163,0.72381,0.53354,0.41328,0.00784,0.23942,0.04226,0.44631,0.79171,0.70804,0,0.4179,0.4179,0.59436,0.79171,0.70804,0.79171,0.59436,0.51192,0.70804,0.79171,0.01005,0.28729,0,0.59436,0.59436,0.79171,0.59436,0.02145,0.08356,0,0.79171,0.15518,0.7411,0.0039,0.91548,0.64558,0.79171,0.79171,0.55048
"分類1: ANSYS Structural",0.29221,0.4173,0.48182,0.46219,0.26301,0.88021,0.74508,0.74996,0.1289,0.37666,0.82215,0.38725,0.3705,0.71293,0.82063,0.19878,0.4447,0.85333,0.89642,0.53824,0.51344,0.85333,0.74463,0.03065,0.97179,0.53824,0.0812,0.51318,0.82062,0.7478,0.4179,0,0.48672,0.6475,0.82062,0.7478,0.82062,0.6475,0.57335,0.7478,0.82062,2e-05,0.36091,0.34395,0.6475,0.6475,0.82062,0.6475,0.0483,0,0.32787,0.82062,0.00687,0.82888,0.43932,0.32787,0.69292,0.82062,0.82062,0.60821
"分類1: ANSYS Multiphysics",0.08004,0.89979,0.45294,0.02217,0.43492,0.51838,0.74508,0.28256,0.52419,0.39612,0.4322,0.57866,0.85363,0.00712,0.08255,0.64275,0.17622,2e-04,0.8527,0.38004,0.35131,0.79203,0.64224,0.54155,0.04725,0.38004,0.0812,0.51318,0.82062,0.7478,0.4179,0.48672,0,0.6475,0.82062,0.7478,0.82062,0.6475,0.57335,0.7478,0.82062,0.02709,0,0.34395,0.6475,0.6475,0.82062,0.6475,0.0483,0,0.32787,0.82062,0.88045,0.22406,0.50172,0.83786,0.69292,0.82062,0.82062,0.60821
"分類1: ANSYS CFD",0.13457,0.24771,0.73166,0.62885,0.655,0.01693,0.30681,0.20011,0.68339,0.64676,0.52455,0.65175,0.10276,0.90751,0.22352,0.5257,0.00779,0.85333,0.89642,0.53824,0.51344,0.85333,0.74463,0.66863,0.16419,0.53824,0.25165,0.66729,0.8815,0.83259,0.59436,0.6475,0.6475,0,0.8815,0.83259,0.8815,0.76373,0.71124,0.83259,0.8815,0.14622,0.5481,0.53385,0,0.76373,0.8815,0.76373,0.04161,0.32871,0.26843,0.8815,0.13211,0.00028,0.61118,0.52009,0.79517,0.8815,0.8815,0.73612
"分類1: ANSYS LS-DYNA",0.20905,0.282,0.48188,0.81057,0.655,0.07696,0.31338,0.52519,0.46585,0.74735,0.6552,NA,0.18329,0.53618,0.39138,0.02404,0.59046,0.89642,0.92696,0.66473,0.6454,0.89642,0.81858,0.76311,0.3273,0.66473,0.56971,0.83119,0.94107,0.91651,0.79171,0.82062,0.82062,0.8815,0,0.91651,0.94107,0.8815,0.85434,0.91651,0.94107,0.16291,0.76582,0.75768,0.8815,0.8815,0.94107,0.8815,0.11834,0.62813,0.74975,0.94107,0.17817,0.69184,0.80095,0.74975,0.89757,0.94107,0.94107,0.86728
"分類1: ANSYS Maxwell",0.25637,0.92021,0.60655,0.73393,0.655,0.3948,0.99387,0.5019,0.30108,0.74735,NA,0.75073,0.05916,0.38037,0.09478,0.5257,0.4447,0.85333,0.89642,0.53824,0.51344,0.85333,0.74463,0.66863,0.16419,0.53824,0.42015,0.76243,0.91651,0.88183,0.70804,0.7478,0.7478,0.83259,0.91651,0,0.91651,0.83259,0.79461,0.88183,0.91651,0.30688,0.67275,0.66174,0.83259,0,0.91651,0.83259,0.36128,0.00324,0.65104,0.91651,0.28962,0.12912,0.7207,0.04456,0.85515,0.91651,0.91651,0.81267
"分類1: HPC",0.42348,0.35001,0.48188,0.81057,0.02397,0.07696,0.31338,0.52519,0.46585,0.74735,NA,0.00149,0.44991,0.10409,0.39138,0.65499,0.59046,0.89642,0.92696,0.01999,0.6454,0.89642,0.81858,0.76311,0.30331,0.01999,0.56971,0.83119,0.94107,0.91651,0.79171,0.82062,0.82062,0.8815,0.94107,0.91651,0,0.8815,0.85434,0.91651,0.94107,0.47118,0.76582,0.75768,0.8815,0.8815,0,0.8815,0.51972,0.62813,0.74975,0,0.17817,0.69184,0.80095,0.74975,0.89757,0.94107,0.94107,0.86728
"分類1: ANSYS Discovery",0.64585,0.24771,0.07067,0.62885,0.19841,0.9746,0.99128,0.87038,0.68339,0.64676,0.6552,0.13863,0.12761,0.31008,0.17602,0.36543,0.27569,0.79203,0.8527,0.60323,0.07958,0.79203,0.64224,0.54155,0.28565,0.60323,0.25165,0.66729,0.8815,0.83259,0.59436,0.6475,0.6475,0.76373,0.8815,0.83259,0.8815,0,0.71124,0.83259,0.8815,0.14622,0.5481,0.53385,0.76373,0.76373,0.8815,0,0.00164,0.32871,0.52009,0.8815,0.54544,0.42414,0.61118,0.52009,0.79517,0.8815,0.8815,0.00543
"分類1: ANSYS DesignSpace",0.77543,0.86075,0.98477,0.55166,0.25472,0.158,0.09962,0.03626,0.09315,0.74735,0.6552,0.25954,0.31111,0.02934,0.08002,0.831,0.22097,0.76718,0.83486,0.3243,0.1721,0.76718,0.11358,0.49305,0.60758,0.3243,0.158,0.59652,0.85434,0.79461,0.51192,0.57335,0.57335,0.71124,0.85434,0.79461,0.85434,0.71124,0,0.79461,0.85434,0.00053,0.45948,0.44355,0.71124,0.71124,0.85434,0.71124,0.10986,0,0.42828,0.85434,0.90309,0.32495,0.53124,0.42828,0.74919,0.85434,0.85434,0.67812
"分類1: ANSYS HFSS",0.25637,0.92021,0.60655,0.73393,NA,0.42015,0.15729,0.5019,0.64515,0.74735,0.6552,NA,0.05916,0.38037,0.39138,0.65499,0.59046,0.89642,0.92696,0.01999,0.6454,0.89642,0.81858,0.76311,0.30331,0.01999,0.42015,0.76243,0.91651,0.88183,0.70804,0.7478,0.7478,0.83259,0.91651,0.88183,0.91651,0.83259,0.79461,0,0.91651,0.30688,0.67275,0.66174,0.83259,0,0.91651,0.83259,0.02678,0.49218,0.65104,0.91651,0.28962,0.57407,0.00808,0.65104,0.85515,0.91651,0.91651,0.81267
"分類1: ANSYS EnSight",0.20905,0.35001,0.15282,0.81057,NA,0.56971,0.31861,0.52519,0.16798,NA,NA,0.75073,0.44991,0.10409,NA,NA,NA,NA,NA,NA,NA,NA,NA,NA,NA,NA,0.56971,0.83119,0.94107,0.91651,0.79171,0.82062,0.82062,0.8815,0.94107,0.91651,0.94107,0.8815,0.85434,0.91651,0,0.47118,0.76582,0.00112,0.8815,0.8815,0.94107,0.8815,0.51972,0.62813,0.00162,0.94107,0.45521,0.69184,0.80095,0.74975,0.89757,0.94107,0.94107,0.86728
"分類2: 構造解析",0.03805,0.18242,0.05676,0.7809,0.64609,0.22932,0.02294,0.50311,0.79551,0.92836,0.45136,0.23611,0.00443,0.57087,0.91297,0.25032,0.32156,0.62729,0.47222,0.76671,0.65382,0.3073,0.36072,0.66967,0.99747,0.76671,0,6e-05,0.47118,0.30688,0.01005,2e-05,0.02709,0.14622,0.16291,0.30688,0.47118,0.14622,0.00053,0.30688,0.47118,0,0.00369,0.00263,0.14622,0.14622,0.47118,0.14622,0,1e-05,0.00188,0.47118,0.14285,0.25401,0.62457,0.67168,0.20952,0.47118,0.47118,0.77608
"分類2: マルチフィジックス",0.02149,0.57915,0.58784,0.15663,0.83044,0.39623,0.4066,0.67548,0.64615,0.7437,0.36066,0.38512,0.15018,0.08419,0.01999,0.86925,0.68206,0.00692,5e-05,0.33497,0.21163,0.72381,0.53354,0.41328,0.27092,0.33497,0.1399,0.39037,0.76582,0.67275,0.28729,0.36091,0,0.5481,0.76582,0.67275,0.76582,0.5481,0.45948,0.67275,0.76582,0.00369,0,0.21381,0.5481,0.5481,0.76582,0.5481,0.71266,0,0.19872,0.76582,0.44736,0.41842,0.20691,0.13053,0.60396,0.76582,0.76582,0.50071
"分類2: その他",0.67838,0.81839,0.8781,0.87578,0.22453,0.94745,0.306,0.80971,0.17529,0.34153,0.06152,0.32215,0.23005,0.40891,0.13863,0.75768,0.0028,0.66863,0.76311,0.15416,0.13028,0.66863,0.44325,0.32169,0.01046,0.15416,0.01766,0.37361,0.00112,0,0,0.34395,0.34395,0.53385,0.75768,0.66174,0.75768,0.53385,0.44355,0.66174,0.00112,0.00263,0.21381,0,0.53385,0.53385,0.75768,0.53385,0.00721,0.04322,0,0.75768,0.13923,0.90126,0.02345,0.67024,0.59105,0.75768,0.75768,0.48548
"分類2: 熱流体解析",0.13457,0.24771,0.73166,0.62885,0.655,0.01693,0.30681,0.20011,0.68339,0.64676,0.52455,0.65175,0.10276,0.90751,0.22352,0.5257,0.00779,0.85333,0.89642,0.53824,0.51344,0.85333,0.74463,0.66863,0.16419,0.53824,0.25165,0.66729,0.8815,0.83259,0.59436,0.6475,0.6475,0,0.8815,0.83259,0.8815,0.76373,0.71124,0.83259,0.8815,0.14622,0.5481,0.53385,0,0.76373,0.8815,0.76373,0.04161,0.32871,0.26843,0.8815,0.13211,0.00028,0.61118,0.52009,0.79517,0.8815,0.8815,0.73612
"分類2: 電磁界解析",0.10653,0.88673,0.46396,0.62885,0.655,0.9746,0.31727,0.33964,0.68339,0.64676,0.6552,0.75073,0.00729,0.21225,0.38383,0.4351,0.34721,0.82013,0.87279,0.39535,0.42154,0.82013,0.6887,0.59858,0.58828,0.39535,0.25165,0.66729,0.8815,0.83259,0.59436,0.6475,0.6475,0.76373,0.8815,0,0.8815,0.76373,0.71124,0,0.8815,0.14622,0.5481,0.53385,0.76373,0,0.8815,0.76373,0.35467,0.10858,0.52009,0.8815,0.13211,0.4969,0.10328,0.26843,0.79517,0.8815,0.8815,0.73612
"分類2: HPC",0.42348,0.35001,0.48188,0.81057,0.02397,0.07696,0.31338,0.52519,0.46585,0.74735,NA,0.00149,0.44991,0.10409,0.39138,0.65499,0.59046,0.89642,0.92696,0.01999,0.6454,0.89642,0.81858,0.76311,0.30331,0.01999,0.56971,0.83119,0.94107,0.91651,0.79171,0.82062,0.82062,0.8815,0.94107,0.91651,0,0.8815,0.85434,0.91651,0.94107,0.47118,0.76582,0.75768,0.8815,0.8815,0,0.8815,0.51972,0.62813,0.74975,0,0.17817,0.69184,0.80095,0.74975,0.89757,0.94107,0.94107,0.86728
"分類2: 設計者向け製品(構造、熱流体)",0.64585,0.24771,0.07067,0.62885,0.19841,0.9746,0.99128,0.87038,0.68339,0.64676,0.6552,0.13863,0.12761,0.31008,0.17602,0.36543,0.27569,0.79203,0.8527,0.60323,0.07958,0.79203,0.64224,0.54155,0.28565,0.60323,0.25165,0.66729,0.8815,0.83259,0.59436,0.6475,0.6475,0.76373,0.8815,0.83259,0.8815,0,0.71124,0.83259,0.8815,0.14622,0.5481,0.53385,0.76373,0.76373,0.8815,0,0.00164,0.32871,0.52009,0.8815,0.54544,0.42414,0.61118,0.52009,0.79517,0.8815,0.8815,0.00543
"主要製品/オプション: 主要製品",0.50366,0.53844,0.19052,0.16996,0.26649,0.74443,0.78237,0.10983,0.36204,0.81234,0.35492,0.7843,0.60042,0.49479,0.06635,0.5534,0.90336,0.54776,0.13028,0.00488,0.82619,0.34392,0.0954,0.96693,0.43942,0.00488,0,0.06338,0.51972,0.36128,0.02145,0.0483,0.0483,0.04161,0.11834,0.36128,0.51972,0.00164,0.10986,0.02678,0.51972,0,0.71266,0.00721,0.04161,0.35467,0.51972,0.00164,0,2e-05,0.00547,0.51972,0.92875,0.88816,0.22113,0.56124,0.26221,0.51972,0.51972,0.12446
"主要製品/オプション: 主要製品（旧製品）",0.88417,0.39285,0.82911,0.08011,0.68531,0.82223,0.09813,0.00379,0.72486,0.64128,0.34415,0.40702,0.51281,0.02457,0.20269,0.26428,0.38985,0.19878,0.65499,0.03463,0.73249,0.5257,0.99257,0.56169,0.06618,0.03463,0.00101,0,0.62813,0.49218,0.08356,0,0,0.32871,0.62813,0.00324,0.62813,0.32871,0,0.49218,0.62813,1e-05,0,0.04322,0.32871,0.10858,0.62813,0.32871,2e-05,0,0.03662,0.62813,0.55312,0.68865,0.39081,0.88826,0.39893,0.62813,0.62813,0.27351
"主要製品/オプション: 機能オプション",0.84122,0.64506,0.7431,0.92729,0.22453,0.93611,0.2116,0.94178,0.09516,0.34153,0.06152,0.29427,0.32903,0.6958,0.13863,0.75768,0.0028,0.66863,0.76311,0.15416,0.13028,0.66863,0.44325,0.32169,0.01046,0.15416,0.01417,0.35765,0.00162,1e-05,0,0.32787,0.32787,0.26843,0.74975,0.65104,0.74975,0.52009,0.42828,0.65104,0.00162,0.00188,0.19872,0,0.26843,0.52009,0.74975,0.52009,0.00547,0.03662,0,0.74975,0.10345,0.82484,0.03229,0.62039,0.57856,0.74975,0.74975,0.47084
"主要製品/オプション: HPCオプション",0.42348,0.35001,0.48188,0.81057,0.02397,0.07696,0.31338,0.52519,0.46585,0.74735,NA,0.00149,0.44991,0.10409,0.39138,0.65499,0.59046,0.89642,0.92696,0.01999,0.6454,0.89642,0.81858,0.76311,0.30331,0.01999,0.56971,0.83119,0.94107,0.91651,0.79171,0.82062,0.82062,0.8815,0.94107,0.91651,0,0.8815,0.85434,0.91651,0.94107,0.47118,0.76582,0.75768,0.8815,0.8815,0,0.8815,0.51972,0.62813,0.74975,0,0.17817,0.69184,0.80095,0.74975,0.89757,0.94107,0.94107,0.86728
"今後行いたい解析: 構造解析",0.39775,0.05185,0.21937,0.08139,0.36725,0.07685,0.32925,0.51716,0,0.1406,0.16884,0.65508,0.32264,0.0744,0.47053,0.28119,0.78604,0.28968,0.45593,0.51473,0.78761,0.05478,0.32187,0.75819,0.2491,0.51473,0.98457,0.51931,0.45521,0.6707,0.15518,0.00687,0.88045,0.13211,0.17817,0.28962,0.17817,0.54544,0.90309,0.28962,0.45521,0.14285,0.44736,0.13923,0.13211,0.13211,0.17817,0.54544,0.92875,0.55312,0.10345,0.17817,0,0.00038,0.05771,0.00127,0.19343,0.45521,0.17817,0.09137
"今後行いたい解析: 熱流体解析",0.57528,0.1452,0.20727,0.73826,0.56113,0.01368,0.01663,0.30373,9e-05,0.64128,0.34415,0.22468,0.07746,0.01856,0.93022,0.12296,0.89671,0.56424,0.68475,0.22998,0.97268,0.56424,0.84992,0.57183,0.49982,0.22998,0.29688,0.33127,0.69184,0.57407,0.7411,0.82888,0.22406,0.00028,0.69184,0.12912,0.69184,0.42414,0.32495,0.57407,0.69184,0.25401,0.41842,0.90126,0.00028,0.4969,0.69184,0.42414,0.88816,0.68865,0.82484,0.69184,0.00038,0,0.17643,0.82484,0.49002,0.69184,0.69184,0.37021
"今後行いたい解析: 電磁界解析",0.64665,0.58055,0.80518,0.57726,0.26301,0.62441,0.74186,0.91711,0.01288,0.37666,0.36066,0.42567,0.51096,0.47257,0.30942,0.50446,0.85024,0.70436,0.78933,0.45449,0.55466,0.70436,0.50379,0.37968,0.94213,0.45449,0.33723,0.46719,0.80095,0.7207,0.0039,0.43932,0.50172,0.61118,0.80095,0.7207,0.80095,0.61118,0.53124,0.00808,0.80095,0.62457,0.20691,0.02345,0.61118,0.10328,0.80095,0.61118,0.22113,0.39081,0.03229,0.80095,0.05771,0.17643,0,0.99072,0.66061,0.80095,0.80095,0.56869
"今後行いたい解析: マルチフィジックス",0.47009,0.57553,0.7431,0.22368,0.40336,0.50071,0.4592,0.23057,0.00165,0.90086,0.485,0.10406,0.13217,0.45438,0.02476,0.8101,0.04962,0.08666,0.71644,0.53117,0.06825,0.60597,0.68892,0.23237,0.10803,0.53117,0.26862,0.74033,0.74975,0.65104,0.91548,0.32787,0.83786,0.52009,0.74975,0.04456,0.74975,0.52009,0.42828,0.65104,0.74975,0.67168,0.13053,0.67024,0.52009,0.26843,0.74975,0.52009,0.56124,0.88826,0.62039,0.74975,0.00127,0.82484,0.99072,0,0.14442,0.74975,0.74975,0.47084
"今後行いたい解析:音響解析",0.16334,0.64515,0.98932,0.67636,0.43492,0.32215,0.08241,0.00585,0.20408,NA,NA,0.13863,0.02048,0.82173,0.82063,0.5257,0.34299,0.85333,0.89642,0.53824,0.219,0.85333,0.74463,0.66863,0.97179,0.53824,0.32215,0.71045,0.89757,0.85515,0.64558,0.69292,0.69292,0.79517,0.89757,0.85515,0.89757,0.79517,0.74919,0.85515,0.89757,0.20952,0.60396,0.59105,0.79517,0.79517,0.89757,0.79517,0.26221,0.39893,0.57856,0.89757,0.19343,0.49002,0.66061,0.14442,0,0,0.89757,0.77102
"今後行いたい解析:WAON",0.42348,0.35001,0.48188,0.81057,0.655,0.56971,0.31861,0.11355,0.46585,NA,NA,0.75073,0.18329,0.53618,NA,NA,NA,NA,NA,NA,NA,NA,NA,NA,NA,NA,0.56971,0.83119,0.94107,0.91651,0.79171,0.82062,0.82062,0.8815,0.94107,0.91651,0.94107,0.8815,0.85434,0.91651,0.94107,0.47118,0.76582,0.75768,0.8815,0.8815,0.94107,0.8815,0.51972,0.62813,0.74975,0.94107,0.45521,0.69184,0.80095,0.74975,0,0,0.94107,0.86728
"今後行いたい解析:ANSYS Motion",0.42348,0.282,0.48188,0.81057,NA,0.56971,0.31338,0.52519,0.46585,0.74735,0.6552,NA,0.18329,0.53618,NA,NA,NA,NA,NA,NA,NA,NA,NA,NA,NA,NA,0.56971,0.83119,0.94107,0.91651,0.79171,0.82062,0.82062,0.8815,0.94107,0.91651,0.94107,0.8815,0.85434,0.91651,0.94107,0.47118,0.76582,0.75768,0.8815,0.8815,0.94107,0.8815,0.51972,0.62813,0.74975,0.94107,0.17817,0.69184,0.80095,0.74975,0.89757,0.94107,0,0.86728
"今後行いたい解析: その他",0.37906,0.76814,0.73473,0.58789,0.36512,0.19872,0.64147,0.66455,0.09922,0.51186,NA,0.46922,0.44436,0.52823,0.7464,0.36543,0.89561,0.79203,0.8527,0.60323,0.07958,0.79203,0.64224,0.54155,0.28565,0.60323,0.40753,0.62985,0.86728,0.81267,0.55048,0.60821,0.60821,0.73612,0.86728,0.81267,0.86728,0.00543,0.67812,0.81267,0.86728,0.77608,0.50071,0.48548,0.73612,0.73612,0.86728,0.00543,0.12446,0.27351,0.47084,0.86728,0.09137,0.37021,0.56869,0.47084,0.77102,0.86728,0.86728,0
