ID,F,M,R,Cancelfl,rank5R,rank5Rn,rank5F,rank5Fn,rank5M,rank5Mn,M_mean,decile_rank
L000553,6,30000,33,1,R1,1,F1,1,M1,1,5000,1
L000679,1,20700,38,1,R1,1,F1,1,M1,1,20700,1
L001205,32,30280,7,1,R4,4,F4,4,M1,1,946.25,1
L001232,39,37381,0,0,R5,5,F5,5,M1,1,958.487179487179,1
L001468,2,20000,26,1,R1,1,F1,1,M1,1,10000,1
L001482,2,24520,29,1,R1,1,F1,1,M1,1,12260,1
L001568,3,16800,22,1,R1,1,F1,1,M1,1,5600,1
L001711,2,61964,19,1,R2,2,F1,1,M1,1,30982,1
L001800,2,14889,0,0,R5,5,F1,1,M1,1,7444.5,1
L001837,3,42600,17,1,R2,2,F1,1,M1,1,14200,1
L002048,5,38000,7,1,R4,4,F1,1,M1,1,7600,1
L002162,12,21916,0,0,R5,5,F2,2,M1,1,1826.33333333333,1
L002189,3,49591,12,1,R3,3,F1,1,M1,1,16530.3333333333,1
L002232,1,7000,0,0,R5,5,F1,1,M1,1,7000,1
L002459,12,59500,0,0,R5,5,F2,2,M1,1,4958.33333333333,1
L002500,12,59500,0,0,R5,5,F2,2,M1,1,4958.33333333333,1
L002507,10,49500,0,0,R5,5,F2,2,M1,1,4950,1
L002562,1,4320,1,1,R4,4,F1,1,M1,1,4320,1
L002593,3,8010,8,1,R4,4,F1,1,M1,1,2670,1
L002724,8,39500,0,0,R5,5,F2,2,M1,1,4937.5,1
L002763,6,29500,0,0,R5,5,F1,1,M1,1,4916.66666666667,1
L002788,9,8385,0,0,R5,5,F2,2,M1,1,931.666666666667,1
L002789,1,4500,8,1,R4,4,F1,1,M1,1,4500,1
L002802,7,59267,0,0,R5,5,F1,1,M1,1,8466.71428571429,1
L002813,1,2000,7,1,R4,4,F1,1,M1,1,2000,1
L002854,5,60766,0,0,R5,5,F1,1,M1,1,12153.2,1
L002861,3,36600,4,1,R4,4,F1,1,M1,1,12200,1
L002863,5,27781,0,0,R5,5,F1,1,M1,1,5556.2,1
L002931,5,24500,0,0,R5,5,F1,1,M1,1,4900,1
L002990,4,45494,0,0,R5,5,F1,1,M1,1,11373.5,1
L002992,4,19500,0,0,R5,5,F1,1,M1,1,4875,1
L003046,4,21291,0,0,R5,5,F1,1,M1,1,5322.75,1
L003047,5,36067,0,0,R5,5,F1,1,M1,1,7213.4,1
L003084,5,31139,0,0,R5,5,F1,1,M1,1,6227.8,1
L003104,1,4207,3,1,R4,4,F1,1,M1,1,4207,1
L003110,1,47990,0,0,R5,5,F1,1,M1,1,47990,1
L003112,5,52120,0,0,R5,5,F1,1,M1,1,10424,1
L003120,4,55600,0,0,R5,5,F1,1,M1,1,13900,1
L003128,2,34794,0,0,R5,5,F1,1,M1,1,17397,1
L003129,4,26520,0,0,R5,5,F1,1,M1,1,6630,1
L003147,2,9500,0,0,R5,5,F1,1,M1,1,4750,1
L003218,3,30289,0,0,R5,5,F1,1,M1,1,10096.3333333333,1
L003228,1,40000,0,0,R5,5,F1,1,M1,1,40000,1
L003229,2,9500,0,0,R5,5,F1,1,M1,1,4750,1
L003230,2,9500,0,0,R5,5,F1,1,M1,1,4750,1
L003232,1,29800,0,0,R5,5,F1,1,M1,1,29800,1
L003233,2,60000,0,0,R5,5,F1,1,M1,1,30000,1
L003242,1,5000,0,0,R5,5,F1,1,M1,1,5000,1
L003249,2,10000,0,0,R5,5,F1,1,M1,1,5000,1
L003252,2,19000,0,0,R5,5,F1,1,M1,1,9500,1
L003269,1,10034,0,0,R5,5,F1,1,M1,1,10034,1
L003271,1,20000,1,1,R4,4,F1,1,M1,1,20000,1
L003276,1,37800,0,0,R5,5,F1,1,M1,1,37800,1
L003277,1,36000,0,0,R5,5,F1,1,M1,1,36000,1
L003330,1,500,0,0,R5,5,F1,1,M1,1,500,1
L003341,1,83,0,0,R5,5,F1,1,M1,1,83,1
L001307,1,45000,23,1,R1,1,F1,1,M1,1,45000,1
L001449,2,60000,22,1,R1,1,F1,1,M1,1,30000,1
L001686,6,60000,18,1,R2,2,F1,1,M1,1,10000,1
L002174,10,19494,2,1,R4,4,F2,2,M1,1,1949.4,1
L003247,3,14085,0,0,R5,5,F1,1,M1,1,4695,1
